07/31/2013 11:19:42 AM : Thread was being aborted.
   at System.Threading.Thread.AbortInternal()
   at System.Threading.Thread.Abort(Object stateInfo)
   at System.Web.HttpResponse.AbortCurrentThread()
   at System.Web.HttpResponse.End()
   at System.Web.HttpResponse.Redirect(String url, Boolean endResponse, Boolean permanent)
   at System.Web.HttpResponse.Redirect(String url)
   at Bestprintbuy.Admin.Web.Common.PageBase.CheckAuthentication() in d:\PPSOLAdmin\SRC\Web\Common\PageBase.cs:line 212
   at Bestprintbuy.Admin.Web.Common.PageBase.OnInit(EventArgs e) in d:\PPSOLAdmin\SRC\Web\Common\PageBase.cs:line 190
------------------------------------------------------------------------
07/31/2013 11:21:07 AM : Thread was being aborted.
   at System.Threading.Thread.AbortInternal()
   at System.Threading.Thread.Abort(Object stateInfo)
   at System.Web.HttpResponse.AbortCurrentThread()
   at System.Web.HttpResponse.End()
   at System.Web.HttpResponse.Redirect(String url, Boolean endResponse, Boolean permanent)
   at System.Web.HttpResponse.Redirect(String url)
   at Bestprintbuy.Admin.Web.Common.PageBase.CheckAuthentication() in d:\PPSOLAdmin\SRC\Web\Common\PageBase.cs:line 212
   at Bestprintbuy.Admin.Web.Common.PageBase.OnInit(EventArgs e) in d:\PPSOLAdmin\SRC\Web\Common\PageBase.cs:line 190
------------------------------------------------------------------------
07/31/2013 11:22:09 AM : Thread was being aborted.
   at System.Threading.Thread.AbortInternal()
   at System.Threading.Thread.Abort(Object stateInfo)
   at System.Web.HttpResponse.AbortCurrentThread()
   at System.Web.HttpResponse.End()
   at System.Web.HttpResponse.Redirect(String url, Boolean endResponse, Boolean permanent)
   at System.Web.HttpResponse.Redirect(String url)
   at Bestprintbuy.Admin.Web.Common.PageBase.CheckAuthentication() in d:\PPSOLAdmin\SRC\Web\Common\PageBase.cs:line 212
   at Bestprintbuy.Admin.Web.Common.PageBase.OnInit(EventArgs e) in d:\PPSOLAdmin\SRC\Web\Common\PageBase.cs:line 190
------------------------------------------------------------------------
07/31/2013 11:25:33 AM : Violation of UNIQUE KEY constraint 'IX_PPS_PROMO_MASTER'. Cannot insert duplicate key in object 'dbo.pps_promo_master'.
The statement has been terminated.
   at System.Data.SqlClient.SqlConnection.OnError(SqlException exception, Boolean breakConnection, Action`1 wrapCloseInAction)
   at System.Data.SqlClient.SqlInternalConnection.OnError(SqlException exception, Boolean breakConnection, Action`1 wrapCloseInAction)
   at System.Data.SqlClient.TdsParser.ThrowExceptionAndWarning(TdsParserStateObject stateObj, Boolean callerHasConnectionLock, Boolean asyncClose)
   at System.Data.SqlClient.TdsParser.TryRun(RunBehavior runBehavior, SqlCommand cmdHandler, SqlDataReader dataStream, BulkCopySimpleResultSet bulkCopyHandler, TdsParserStateObject stateObj, Boolean& dataReady)
   at System.Data.SqlClient.SqlDataReader.TryConsumeMetaData()
   at System.Data.SqlClient.SqlDataReader.get_MetaData()
   at System.Data.SqlClient.SqlCommand.FinishExecuteReader(SqlDataReader ds, RunBehavior runBehavior, String resetOptionsString)
   at System.Data.SqlClient.SqlCommand.RunExecuteReaderTds(CommandBehavior cmdBehavior, RunBehavior runBehavior, Boolean returnStream, Boolean async, Int32 timeout, Task& task, Boolean asyncWrite)
   at System.Data.SqlClient.SqlCommand.RunExecuteReader(CommandBehavior cmdBehavior, RunBehavior runBehavior, Boolean returnStream, String method, TaskCompletionSource`1 completion, Int32 timeout, Task& task, Boolean asyncWrite)
   at System.Data.SqlClient.SqlCommand.RunExecuteReader(CommandBehavior cmdBehavior, RunBehavior runBehavior, Boolean returnStream, String method)
   at System.Data.SqlClient.SqlCommand.ExecuteScalar()
   at Bestprintbuy.Admin.DataAccess.SqlHelper.ExecuteScalar(SqlTransaction transaction, CommandType commandType, String commandText, SqlParameter[] commandParameters) in d:\PPSOLAdmin\SRC\DataAccess\SQLHelper.cs:line 1396
   at Bestprintbuy.Admin.DataAccess.PromoAccess.updatePromo(PromotionsRow promoRow, SqlTransaction transaction) in d:\PPSOLAdmin\SRC\DataAccess\PromoAccess.cs:line 604
------------------------------------------------------------------------
07/31/2013 11:25:33 AM : Violation of UNIQUE KEY constraint 'IX_PPS_PROMO_MASTER'. Cannot insert duplicate key in object 'dbo.pps_promo_master'.
The statement has been terminated.
   at Bestprintbuy.Admin.DataAccess.PromoAccess.updatePromo(PromotionsRow promoRow, SqlTransaction transaction) in d:\PPSOLAdmin\SRC\DataAccess\PromoAccess.cs:line 609
   at Bestprintbuy.Admin.DataAccess.PromoAccess.UpdatePromoData(PromotionModel promoData, String strDBConn) in d:\PPSOLAdmin\SRC\DataAccess\PromoAccess.cs:line 265
------------------------------------------------------------------------
07/31/2013 11:25:33 AM : Violation of UNIQUE KEY constraint 'IX_PPS_PROMO_MASTER'. Cannot insert duplicate key in object 'dbo.pps_promo_master'.
The statement has been terminated.
   at Bestprintbuy.Admin.DataAccess.PromoAccess.UpdatePromoData(PromotionModel promoData, String strDBConn) in d:\PPSOLAdmin\SRC\DataAccess\PromoAccess.cs:line 384
   at Bestprintbuy.Admin.Services.PromoService.UpdatePromoData(PromotionModel data, String strDBConn) in d:\PPSOLAdmin\SRC\Services\PromoService.cs:line 25
   at Bestprintbuy.Admin.Web.Customers.PromoDetails.btnSave_Click(Object sender, EventArgs e) in d:\PPSOLAdmin\SRC\Web\Customers\PromoDetails.aspx.cs:line 249
------------------------------------------------------------------------
07/31/2013 11:25:41 AM : Violation of UNIQUE KEY constraint 'IX_PPS_PROMO_MASTER'. Cannot insert duplicate key in object 'dbo.pps_promo_master'.
The statement has been terminated.
   at System.Data.SqlClient.SqlConnection.OnError(SqlException exception, Boolean breakConnection, Action`1 wrapCloseInAction)
   at System.Data.SqlClient.SqlInternalConnection.OnError(SqlException exception, Boolean breakConnection, Action`1 wrapCloseInAction)
   at System.Data.SqlClient.TdsParser.ThrowExceptionAndWarning(TdsParserStateObject stateObj, Boolean callerHasConnectionLock, Boolean asyncClose)
   at System.Data.SqlClient.TdsParser.TryRun(RunBehavior runBehavior, SqlCommand cmdHandler, SqlDataReader dataStream, BulkCopySimpleResultSet bulkCopyHandler, TdsParserStateObject stateObj, Boolean& dataReady)
   at System.Data.SqlClient.SqlDataReader.TryConsumeMetaData()
   at System.Data.SqlClient.SqlDataReader.get_MetaData()
   at System.Data.SqlClient.SqlCommand.FinishExecuteReader(SqlDataReader ds, RunBehavior runBehavior, String resetOptionsString)
   at System.Data.SqlClient.SqlCommand.RunExecuteReaderTds(CommandBehavior cmdBehavior, RunBehavior runBehavior, Boolean returnStream, Boolean async, Int32 timeout, Task& task, Boolean asyncWrite)
   at System.Data.SqlClient.SqlCommand.RunExecuteReader(CommandBehavior cmdBehavior, RunBehavior runBehavior, Boolean returnStream, String method, TaskCompletionSource`1 completion, Int32 timeout, Task& task, Boolean asyncWrite)
   at System.Data.SqlClient.SqlCommand.RunExecuteReader(CommandBehavior cmdBehavior, RunBehavior runBehavior, Boolean returnStream, String method)
   at System.Data.SqlClient.SqlCommand.ExecuteScalar()
   at Bestprintbuy.Admin.DataAccess.SqlHelper.ExecuteScalar(SqlTransaction transaction, CommandType commandType, String commandText, SqlParameter[] commandParameters) in d:\PPSOLAdmin\SRC\DataAccess\SQLHelper.cs:line 1396
   at Bestprintbuy.Admin.DataAccess.PromoAccess.updatePromo(PromotionsRow promoRow, SqlTransaction transaction) in d:\PPSOLAdmin\SRC\DataAccess\PromoAccess.cs:line 604
------------------------------------------------------------------------
07/31/2013 11:25:41 AM : Violation of UNIQUE KEY constraint 'IX_PPS_PROMO_MASTER'. Cannot insert duplicate key in object 'dbo.pps_promo_master'.
The statement has been terminated.
   at Bestprintbuy.Admin.DataAccess.PromoAccess.updatePromo(PromotionsRow promoRow, SqlTransaction transaction) in d:\PPSOLAdmin\SRC\DataAccess\PromoAccess.cs:line 609
   at Bestprintbuy.Admin.DataAccess.PromoAccess.UpdatePromoData(PromotionModel promoData, String strDBConn) in d:\PPSOLAdmin\SRC\DataAccess\PromoAccess.cs:line 265
------------------------------------------------------------------------
07/31/2013 11:25:41 AM : Violation of UNIQUE KEY constraint 'IX_PPS_PROMO_MASTER'. Cannot insert duplicate key in object 'dbo.pps_promo_master'.
The statement has been terminated.
   at Bestprintbuy.Admin.DataAccess.PromoAccess.UpdatePromoData(PromotionModel promoData, String strDBConn) in d:\PPSOLAdmin\SRC\DataAccess\PromoAccess.cs:line 384
   at Bestprintbuy.Admin.Services.PromoService.UpdatePromoData(PromotionModel data, String strDBConn) in d:\PPSOLAdmin\SRC\Services\PromoService.cs:line 25
   at Bestprintbuy.Admin.Web.Customers.PromoDetails.btnSave_Click(Object sender, EventArgs e) in d:\PPSOLAdmin\SRC\Web\Customers\PromoDetails.aspx.cs:line 249
------------------------------------------------------------------------
07/31/2013 11:40:25 AM : Thread was being aborted.
   at System.Threading.Thread.AbortInternal()
   at System.Threading.Thread.Abort(Object stateInfo)
   at System.Web.HttpResponse.AbortCurrentThread()
   at System.Web.HttpResponse.End()
   at System.Web.HttpResponse.Redirect(String url, Boolean endResponse, Boolean permanent)
   at System.Web.HttpResponse.Redirect(String url)
   at Bestprintbuy.Admin.Web.Customers.CustomerCreditDetails.btnSave_Click(Object sender, EventArgs e) in d:\PPSOLAdmin\SRC\Web\Customers\CustomerCreditDetails.aspx.cs:line 221
------------------------------------------------------------------------
07/31/2013 11:45:52 AM : Thread was being aborted.
   at System.Threading.Thread.AbortInternal()
   at System.Threading.Thread.Abort(Object stateInfo)
   at System.Web.HttpResponse.AbortCurrentThread()
   at System.Web.HttpResponse.End()
   at System.Web.HttpResponse.Redirect(String url, Boolean endResponse, Boolean permanent)
   at System.Web.HttpResponse.Redirect(String url)
   at Bestprintbuy.Admin.Web.Customers.CustomerValidateAndAssign.lbtnValidate_Click(Object sender, EventArgs e) in d:\PPSOLAdmin\SRC\Web\Customers\CustomerValidateAndAssign.aspx.cs:line 29
------------------------------------------------------------------------
07/31/2013 11:51:49 AM : Thread was being aborted.
   at System.Threading.Thread.AbortInternal()
   at System.Threading.Thread.Abort(Object stateInfo)
   at System.Web.HttpResponse.AbortCurrentThread()
   at System.Web.HttpResponse.End()
   at System.Web.HttpResponse.Redirect(String url, Boolean endResponse, Boolean permanent)
   at System.Web.HttpResponse.Redirect(String url)
   at Bestprintbuy.Admin.Web.Account.UserDetails.btnSave_Click(Object sender, EventArgs e) in d:\PPSOLAdmin\SRC\Web\Account\UserDetails.aspx.cs:line 155
------------------------------------------------------------------------
07/31/2013 11:53:25 AM : Thread was being aborted.
   at System.Threading.Thread.AbortInternal()
   at System.Threading.Thread.Abort(Object stateInfo)
   at System.Web.HttpResponse.AbortCurrentThread()
   at System.Web.HttpResponse.End()
   at System.Web.HttpResponse.Redirect(String url, Boolean endResponse, Boolean permanent)
   at System.Web.HttpResponse.Redirect(String url)
   at Bestprintbuy.Admin.Web.Account.UserDetails.btnSave_Click(Object sender, EventArgs e) in d:\PPSOLAdmin\SRC\Web\Account\UserDetails.aspx.cs:line 155
------------------------------------------------------------------------
07/31/2013 11:54:41 AM : Thread was being aborted.
   at System.Threading.Thread.AbortInternal()
   at System.Threading.Thread.Abort(Object stateInfo)
   at System.Web.HttpResponse.AbortCurrentThread()
   at System.Web.HttpResponse.End()
   at System.Web.HttpResponse.Redirect(String url, Boolean endResponse, Boolean permanent)
   at System.Web.HttpResponse.Redirect(String url)
   at Bestprintbuy.Admin.Web.Account.UserDetails.btnSave_Click(Object sender, EventArgs e) in d:\PPSOLAdmin\SRC\Web\Account\UserDetails.aspx.cs:line 155
------------------------------------------------------------------------
07/31/2013 11:56:17 AM : Thread was being aborted.
   at System.Threading.Thread.AbortInternal()
   at System.Threading.Thread.Abort(Object stateInfo)
   at System.Web.HttpResponse.AbortCurrentThread()
   at System.Web.HttpResponse.End()
   at System.Web.HttpResponse.Redirect(String url, Boolean endResponse, Boolean permanent)
   at System.Web.HttpResponse.Redirect(String url)
   at Bestprintbuy.Admin.Web.Account.UserDetails.btnSave_Click(Object sender, EventArgs e) in d:\PPSOLAdmin\SRC\Web\Account\UserDetails.aspx.cs:line 155
------------------------------------------------------------------------
07/31/2013 12:05:55 PM : System.Web.Services.Protocols.SoapException: Server was unable to process request. ---> System.ArgumentException: Invalid or expired token.
   at Usadata.ListModuleV3.GatewayService.getOrderStatus(String Token) in E:\Work\USADATA\01-Trunk\SBP_Original\listmodulev3\GatewayService.vb:line 1146
   --- End of inner exception stack trace ---
   at System.Web.Services.Protocols.SoapHttpClientProtocol.ReadResponse(SoapClientMessage message, WebResponse response, Stream responseStream, Boolean asyncCall)
   at System.Web.Services.Protocols.SoapHttpClientProtocol.Invoke(String methodName, Object[] parameters)
   at Bestprintbuy.Admin.Web.Usadata.ListModuleV3.Gateway.GatewayService.getOrderStatus(String Token) in d:\PPSOLAdmin\SRC\Web\Web References\Usadata.ListModuleV3.Gateway\Reference.cs:line 358
   at Bestprintbuy.Admin.Web.Customers.CheckUSLeadsList.CheckPendingUSLeadsForDownload() in d:\PPSOLAdmin\SRC\Web\Customers\CheckUSLeadsList.aspx.cs:line 55
------------------------------------------------------------------------
07/31/2013 12:05:59 PM : System.Web.Services.Protocols.SoapException: Server was unable to process request. ---> System.ArgumentException: Invalid or expired token.
   at Usadata.ListModuleV3.GatewayService.getOrderStatus(String Token) in E:\Work\USADATA\01-Trunk\SBP_Original\listmodulev3\GatewayService.vb:line 1146
   --- End of inner exception stack trace ---
   at System.Web.Services.Protocols.SoapHttpClientProtocol.ReadResponse(SoapClientMessage message, WebResponse response, Stream responseStream, Boolean asyncCall)
   at System.Web.Services.Protocols.SoapHttpClientProtocol.Invoke(String methodName, Object[] parameters)
   at Bestprintbuy.Admin.Web.Usadata.ListModuleV3.Gateway.GatewayService.getOrderStatus(String Token) in d:\PPSOLAdmin\SRC\Web\Web References\Usadata.ListModuleV3.Gateway\Reference.cs:line 358
   at Bestprintbuy.Admin.Web.Customers.CheckUSLeadsList.CheckPendingUSLeadsForDownload() in d:\PPSOLAdmin\SRC\Web\Customers\CheckUSLeadsList.aspx.cs:line 55
------------------------------------------------------------------------
07/31/2013 12:08:31 PM : Thread was being aborted.
   at System.Threading.Thread.AbortInternal()
   at System.Threading.Thread.Abort(Object stateInfo)
   at System.Web.HttpResponse.AbortCurrentThread()
   at System.Web.HttpResponse.End()
   at System.Web.HttpResponse.Redirect(String url, Boolean endResponse, Boolean permanent)
   at System.Web.HttpResponse.Redirect(String url)
   at Bestprintbuy.Admin.Web.Common.PageBase.CheckAuthentication() in d:\PPSOLAdmin\SRC\Web\Common\PageBase.cs:line 212
   at Bestprintbuy.Admin.Web.Common.PageBase.OnInit(EventArgs e) in d:\PPSOLAdmin\SRC\Web\Common\PageBase.cs:line 190
------------------------------------------------------------------------
07/31/2013 12:08:47 PM : System.Web.Services.Protocols.SoapException: Server was unable to process request. ---> System.ArgumentException: Invalid or expired token.
   at Usadata.ListModuleV3.GatewayService.getOrderStatus(String Token) in E:\Work\USADATA\01-Trunk\SBP_Original\listmodulev3\GatewayService.vb:line 1146
   --- End of inner exception stack trace ---
   at System.Web.Services.Protocols.SoapHttpClientProtocol.ReadResponse(SoapClientMessage message, WebResponse response, Stream responseStream, Boolean asyncCall)
   at System.Web.Services.Protocols.SoapHttpClientProtocol.Invoke(String methodName, Object[] parameters)
   at Bestprintbuy.Admin.Web.Usadata.ListModuleV3.Gateway.GatewayService.getOrderStatus(String Token) in d:\PPSOLAdmin\SRC\Web\Web References\Usadata.ListModuleV3.Gateway\Reference.cs:line 358
   at Bestprintbuy.Admin.Web.Customers.CheckUSLeadsList.CheckPendingUSLeadsForDownload() in d:\PPSOLAdmin\SRC\Web\Customers\CheckUSLeadsList.aspx.cs:line 55
------------------------------------------------------------------------
07/31/2013 12:14:40 PM : System.Web.Services.Protocols.SoapException: Server was unable to process request. ---> System.ArgumentException: Invalid or expired token.
   at Usadata.ListModuleV3.GatewayService.getOrderStatus(String Token) in E:\Work\USADATA\01-Trunk\SBP_Original\listmodulev3\GatewayService.vb:line 1146
   --- End of inner exception stack trace ---
   at System.Web.Services.Protocols.SoapHttpClientProtocol.ReadResponse(SoapClientMessage message, WebResponse response, Stream responseStream, Boolean asyncCall)
   at System.Web.Services.Protocols.SoapHttpClientProtocol.Invoke(String methodName, Object[] parameters)
   at Bestprintbuy.Admin.Web.Usadata.ListModuleV3.Gateway.GatewayService.getOrderStatus(String Token) in d:\PPSOLAdmin\SRC\Web\Web References\Usadata.ListModuleV3.Gateway\Reference.cs:line 358
   at Bestprintbuy.Admin.Web.Customers.CheckUSLeadsList.CheckPendingUSLeadsForDownload() in d:\PPSOLAdmin\SRC\Web\Customers\CheckUSLeadsList.aspx.cs:line 55
------------------------------------------------------------------------
07/31/2013 12:14:46 PM : System.Web.Services.Protocols.SoapException: Server was unable to process request. ---> System.ArgumentException: Invalid or expired token.
   at Usadata.ListModuleV3.GatewayService.getOrderStatus(String Token) in E:\Work\USADATA\01-Trunk\SBP_Original\listmodulev3\GatewayService.vb:line 1146
   --- End of inner exception stack trace ---
   at System.Web.Services.Protocols.SoapHttpClientProtocol.ReadResponse(SoapClientMessage message, WebResponse response, Stream responseStream, Boolean asyncCall)
   at System.Web.Services.Protocols.SoapHttpClientProtocol.Invoke(String methodName, Object[] parameters)
   at Bestprintbuy.Admin.Web.Usadata.ListModuleV3.Gateway.GatewayService.getOrderStatus(String Token) in d:\PPSOLAdmin\SRC\Web\Web References\Usadata.ListModuleV3.Gateway\Reference.cs:line 358
   at Bestprintbuy.Admin.Web.Customers.CheckUSLeadsList.CheckPendingUSLeadsForDownload() in d:\PPSOLAdmin\SRC\Web\Customers\CheckUSLeadsList.aspx.cs:line 55
------------------------------------------------------------------------
07/31/2013 12:18:20 PM : System.Web.Services.Protocols.SoapException: Server was unable to process request. ---> System.ArgumentException: Invalid or expired token.
   at Usadata.ListModuleV3.GatewayService.getOrderStatus(String Token) in E:\Work\USADATA\01-Trunk\SBP_Original\listmodulev3\GatewayService.vb:line 1146
   --- End of inner exception stack trace ---
   at System.Web.Services.Protocols.SoapHttpClientProtocol.ReadResponse(SoapClientMessage message, WebResponse response, Stream responseStream, Boolean asyncCall)
   at System.Web.Services.Protocols.SoapHttpClientProtocol.Invoke(String methodName, Object[] parameters)
   at Bestprintbuy.Admin.Web.Usadata.ListModuleV3.Gateway.GatewayService.getOrderStatus(String Token) in d:\PPSOLAdmin\SRC\Web\Web References\Usadata.ListModuleV3.Gateway\Reference.cs:line 358
   at Bestprintbuy.Admin.Web.Customers.CheckUSLeadsList.CheckPendingUSLeadsForDownload() in d:\PPSOLAdmin\SRC\Web\Customers\CheckUSLeadsList.aspx.cs:line 55
------------------------------------------------------------------------
07/31/2013 12:33:28 PM : Thread was being aborted.
   at System.Threading.Thread.AbortInternal()
   at System.Threading.Thread.Abort(Object stateInfo)
   at System.Web.HttpResponse.AbortCurrentThread()
   at System.Web.HttpResponse.End()
   at System.Web.HttpResponse.Redirect(String url, Boolean endResponse, Boolean permanent)
   at System.Web.HttpResponse.Redirect(String url)
   at Bestprintbuy.Admin.Web.Common.PageBase.CheckAuthentication() in d:\PPSOLAdmin\SRC\Web\Common\PageBase.cs:line 212
   at Bestprintbuy.Admin.Web.Common.PageBase.OnInit(EventArgs e) in d:\PPSOLAdmin\SRC\Web\Common\PageBase.cs:line 190
------------------------------------------------------------------------
07/31/2013 12:35:34 PM : System.Web.Services.Protocols.SoapException: Server was unable to process request. ---> System.ArgumentException: Invalid or expired token.
   at Usadata.ListModuleV3.GatewayService.getOrderStatus(String Token) in E:\Work\USADATA\01-Trunk\SBP_Original\listmodulev3\GatewayService.vb:line 1146
   --- End of inner exception stack trace ---
   at System.Web.Services.Protocols.SoapHttpClientProtocol.ReadResponse(SoapClientMessage message, WebResponse response, Stream responseStream, Boolean asyncCall)
   at System.Web.Services.Protocols.SoapHttpClientProtocol.Invoke(String methodName, Object[] parameters)
   at Bestprintbuy.Admin.Web.Usadata.ListModuleV3.Gateway.GatewayService.getOrderStatus(String Token) in d:\PPSOLAdmin\SRC\Web\Web References\Usadata.ListModuleV3.Gateway\Reference.cs:line 358
   at Bestprintbuy.Admin.Web.Customers.CheckUSLeadsList.CheckPendingUSLeadsForDownload() in d:\PPSOLAdmin\SRC\Web\Customers\CheckUSLeadsList.aspx.cs:line 55
------------------------------------------------------------------------
07/31/2013 12:35:38 PM : System.Web.Services.Protocols.SoapException: Server was unable to process request. ---> System.ArgumentException: Invalid or expired token.
   at Usadata.ListModuleV3.GatewayService.getOrderStatus(String Token) in E:\Work\USADATA\01-Trunk\SBP_Original\listmodulev3\GatewayService.vb:line 1146
   --- End of inner exception stack trace ---
   at System.Web.Services.Protocols.SoapHttpClientProtocol.ReadResponse(SoapClientMessage message, WebResponse response, Stream responseStream, Boolean asyncCall)
   at System.Web.Services.Protocols.SoapHttpClientProtocol.Invoke(String methodName, Object[] parameters)
   at Bestprintbuy.Admin.Web.Usadata.ListModuleV3.Gateway.GatewayService.getOrderStatus(String Token) in d:\PPSOLAdmin\SRC\Web\Web References\Usadata.ListModuleV3.Gateway\Reference.cs:line 358
   at Bestprintbuy.Admin.Web.Customers.CheckUSLeadsList.CheckPendingUSLeadsForDownload() in d:\PPSOLAdmin\SRC\Web\Customers\CheckUSLeadsList.aspx.cs:line 55
------------------------------------------------------------------------
07/31/2013 12:36:07 PM : Mail sending restricted
------------------------------------------------------------------------
07/31/2013 12:36:10 PM : Mail sending restricted
------------------------------------------------------------------------
07/31/2013 12:37:10 PM : Thread was being aborted.
   at System.Threading.Thread.AbortInternal()
   at System.Threading.Thread.Abort(Object stateInfo)
   at System.Web.HttpResponse.AbortCurrentThread()
   at System.Web.HttpResponse.End()
   at System.Web.HttpResponse.Redirect(String url, Boolean endResponse, Boolean permanent)
   at System.Web.HttpResponse.Redirect(String url)
   at Bestprintbuy.Admin.Web.Common.PageBase.CheckAuthentication() in d:\PPSOLAdmin\SRC\Web\Common\PageBase.cs:line 208
   at Bestprintbuy.Admin.Web.Common.PageBase.OnInit(EventArgs e) in d:\PPSOLAdmin\SRC\Web\Common\PageBase.cs:line 190
------------------------------------------------------------------------
07/31/2013 12:37:24 PM : System.Web.Services.Protocols.SoapException: Server was unable to process request. ---> System.ArgumentException: Invalid or expired token.
   at Usadata.ListModuleV3.GatewayService.getOrderStatus(String Token) in E:\Work\USADATA\01-Trunk\SBP_Original\listmodulev3\GatewayService.vb:line 1146
   --- End of inner exception stack trace ---
   at System.Web.Services.Protocols.SoapHttpClientProtocol.ReadResponse(SoapClientMessage message, WebResponse response, Stream responseStream, Boolean asyncCall)
   at System.Web.Services.Protocols.SoapHttpClientProtocol.Invoke(String methodName, Object[] parameters)
   at Bestprintbuy.Admin.Web.Usadata.ListModuleV3.Gateway.GatewayService.getOrderStatus(String Token) in d:\PPSOLAdmin\SRC\Web\Web References\Usadata.ListModuleV3.Gateway\Reference.cs:line 358
   at Bestprintbuy.Admin.Web.Customers.CheckUSLeadsList.CheckPendingUSLeadsForDownload() in d:\PPSOLAdmin\SRC\Web\Customers\CheckUSLeadsList.aspx.cs:line 55
------------------------------------------------------------------------
07/31/2013 12:37:27 PM : System.Web.Services.Protocols.SoapException: Server was unable to process request. ---> System.ArgumentException: Invalid or expired token.
   at Usadata.ListModuleV3.GatewayService.getOrderStatus(String Token) in E:\Work\USADATA\01-Trunk\SBP_Original\listmodulev3\GatewayService.vb:line 1146
   --- End of inner exception stack trace ---
   at System.Web.Services.Protocols.SoapHttpClientProtocol.ReadResponse(SoapClientMessage message, WebResponse response, Stream responseStream, Boolean asyncCall)
   at System.Web.Services.Protocols.SoapHttpClientProtocol.Invoke(String methodName, Object[] parameters)
   at Bestprintbuy.Admin.Web.Usadata.ListModuleV3.Gateway.GatewayService.getOrderStatus(String Token) in d:\PPSOLAdmin\SRC\Web\Web References\Usadata.ListModuleV3.Gateway\Reference.cs:line 358
   at Bestprintbuy.Admin.Web.Customers.CheckUSLeadsList.CheckPendingUSLeadsForDownload() in d:\PPSOLAdmin\SRC\Web\Customers\CheckUSLeadsList.aspx.cs:line 55
------------------------------------------------------------------------
07/31/2013 12:41:10 PM : Thread was being aborted.
   at System.Threading.Thread.AbortInternal()
   at System.Threading.Thread.Abort(Object stateInfo)
   at System.Web.HttpResponse.AbortCurrentThread()
   at System.Web.HttpResponse.End()
   at System.Web.HttpResponse.Redirect(String url, Boolean endResponse, Boolean permanent)
   at System.Web.HttpResponse.Redirect(String url)
   at Bestprintbuy.Admin.Web.Common.PageBase.CheckAuthentication() in d:\PPSOLAdmin\SRC\Web\Common\PageBase.cs:line 212
   at Bestprintbuy.Admin.Web.Common.PageBase.OnInit(EventArgs e) in d:\PPSOLAdmin\SRC\Web\Common\PageBase.cs:line 190
------------------------------------------------------------------------
07/31/2013 12:41:26 PM : System.Web.Services.Protocols.SoapException: Server was unable to process request. ---> System.ArgumentException: Invalid or expired token.
   at Usadata.ListModuleV3.GatewayService.getOrderStatus(String Token) in E:\Work\USADATA\01-Trunk\SBP_Original\listmodulev3\GatewayService.vb:line 1146
   --- End of inner exception stack trace ---
   at System.Web.Services.Protocols.SoapHttpClientProtocol.ReadResponse(SoapClientMessage message, WebResponse response, Stream responseStream, Boolean asyncCall)
   at System.Web.Services.Protocols.SoapHttpClientProtocol.Invoke(String methodName, Object[] parameters)
   at Bestprintbuy.Admin.Web.Usadata.ListModuleV3.Gateway.GatewayService.getOrderStatus(String Token) in d:\PPSOLAdmin\SRC\Web\Web References\Usadata.ListModuleV3.Gateway\Reference.cs:line 358
   at Bestprintbuy.Admin.Web.Customers.CheckUSLeadsList.CheckPendingUSLeadsForDownload() in d:\PPSOLAdmin\SRC\Web\Customers\CheckUSLeadsList.aspx.cs:line 55
------------------------------------------------------------------------
07/31/2013 12:41:27 PM : System.Web.Services.Protocols.SoapException: Server was unable to process request. ---> System.ArgumentException: Invalid or expired token.
   at Usadata.ListModuleV3.GatewayService.getOrderStatus(String Token) in E:\Work\USADATA\01-Trunk\SBP_Original\listmodulev3\GatewayService.vb:line 1146
   --- End of inner exception stack trace ---
   at System.Web.Services.Protocols.SoapHttpClientProtocol.ReadResponse(SoapClientMessage message, WebResponse response, Stream responseStream, Boolean asyncCall)
   at System.Web.Services.Protocols.SoapHttpClientProtocol.Invoke(String methodName, Object[] parameters)
   at Bestprintbuy.Admin.Web.Usadata.ListModuleV3.Gateway.GatewayService.getOrderStatus(String Token) in d:\PPSOLAdmin\SRC\Web\Web References\Usadata.ListModuleV3.Gateway\Reference.cs:line 358
   at Bestprintbuy.Admin.Web.Customers.CheckUSLeadsList.CheckPendingUSLeadsForDownload() in d:\PPSOLAdmin\SRC\Web\Customers\CheckUSLeadsList.aspx.cs:line 55
------------------------------------------------------------------------
07/31/2013 12:42:00 PM : Thread was being aborted.
   at System.Threading.Thread.AbortInternal()
   at System.Threading.Thread.Abort(Object stateInfo)
   at System.Web.HttpResponse.AbortCurrentThread()
   at System.Web.HttpResponse.End()
   at System.Web.HttpResponse.Redirect(String url, Boolean endResponse, Boolean permanent)
   at System.Web.HttpResponse.Redirect(String url)
   at Bestprintbuy.Admin.Web.Common.PageBase.CheckAuthentication() in d:\PPSOLAdmin\SRC\Web\Common\PageBase.cs:line 208
   at Bestprintbuy.Admin.Web.Common.PageBase.OnInit(EventArgs e) in d:\PPSOLAdmin\SRC\Web\Common\PageBase.cs:line 190
------------------------------------------------------------------------
07/31/2013 12:42:00 PM : Thread was being aborted.
   at System.Threading.Thread.AbortInternal()
   at System.Threading.Thread.Abort(Object stateInfo)
   at System.Web.HttpResponse.AbortCurrentThread()
   at System.Web.HttpResponse.End()
   at System.Web.HttpResponse.Redirect(String url, Boolean endResponse, Boolean permanent)
   at System.Web.HttpResponse.Redirect(String url)
   at Bestprintbuy.Admin.Web.Common.PageBase.CheckAuthentication() in d:\PPSOLAdmin\SRC\Web\Common\PageBase.cs:line 208
   at Bestprintbuy.Admin.Web.Common.PageBase.OnInit(EventArgs e) in d:\PPSOLAdmin\SRC\Web\Common\PageBase.cs:line 190
------------------------------------------------------------------------
07/31/2013 12:42:15 PM : System.Web.Services.Protocols.SoapException: Server was unable to process request. ---> System.ArgumentException: Invalid or expired token.
   at Usadata.ListModuleV3.GatewayService.getOrderStatus(String Token) in E:\Work\USADATA\01-Trunk\SBP_Original\listmodulev3\GatewayService.vb:line 1146
   --- End of inner exception stack trace ---
   at System.Web.Services.Protocols.SoapHttpClientProtocol.ReadResponse(SoapClientMessage message, WebResponse response, Stream responseStream, Boolean asyncCall)
   at System.Web.Services.Protocols.SoapHttpClientProtocol.Invoke(String methodName, Object[] parameters)
   at Bestprintbuy.Admin.Web.Usadata.ListModuleV3.Gateway.GatewayService.getOrderStatus(String Token) in d:\PPSOLAdmin\SRC\Web\Web References\Usadata.ListModuleV3.Gateway\Reference.cs:line 358
   at Bestprintbuy.Admin.Web.Customers.CheckUSLeadsList.CheckPendingUSLeadsForDownload() in d:\PPSOLAdmin\SRC\Web\Customers\CheckUSLeadsList.aspx.cs:line 55
------------------------------------------------------------------------
07/31/2013 12:42:21 PM : System.Web.Services.Protocols.SoapException: Server was unable to process request. ---> System.ArgumentException: Invalid or expired token.
   at Usadata.ListModuleV3.GatewayService.getOrderStatus(String Token) in E:\Work\USADATA\01-Trunk\SBP_Original\listmodulev3\GatewayService.vb:line 1146
   --- End of inner exception stack trace ---
   at System.Web.Services.Protocols.SoapHttpClientProtocol.ReadResponse(SoapClientMessage message, WebResponse response, Stream responseStream, Boolean asyncCall)
   at System.Web.Services.Protocols.SoapHttpClientProtocol.Invoke(String methodName, Object[] parameters)
   at Bestprintbuy.Admin.Web.Usadata.ListModuleV3.Gateway.GatewayService.getOrderStatus(String Token) in d:\PPSOLAdmin\SRC\Web\Web References\Usadata.ListModuleV3.Gateway\Reference.cs:line 358
   at Bestprintbuy.Admin.Web.Customers.CheckUSLeadsList.CheckPendingUSLeadsForDownload() in d:\PPSOLAdmin\SRC\Web\Customers\CheckUSLeadsList.aspx.cs:line 55
------------------------------------------------------------------------
07/31/2013 12:43:23 PM : Thread was being aborted.
   at System.Threading.Thread.AbortInternal()
   at System.Threading.Thread.Abort(Object stateInfo)
   at System.Web.HttpResponse.AbortCurrentThread()
   at System.Web.HttpResponse.End()
   at System.Web.HttpResponse.Redirect(String url, Boolean endResponse, Boolean permanent)
   at System.Web.HttpResponse.Redirect(String url)
   at Bestprintbuy.Admin.Web.Common.PageBase.CheckAuthentication() in d:\PPSOLAdmin\SRC\Web\Common\PageBase.cs:line 208
   at Bestprintbuy.Admin.Web.Common.PageBase.OnInit(EventArgs e) in d:\PPSOLAdmin\SRC\Web\Common\PageBase.cs:line 190
------------------------------------------------------------------------
07/31/2013 12:43:39 PM : System.Web.Services.Protocols.SoapException: Server was unable to process request. ---> System.ArgumentException: Invalid or expired token.
   at Usadata.ListModuleV3.GatewayService.getOrderStatus(String Token) in E:\Work\USADATA\01-Trunk\SBP_Original\listmodulev3\GatewayService.vb:line 1146
   --- End of inner exception stack trace ---
   at System.Web.Services.Protocols.SoapHttpClientProtocol.ReadResponse(SoapClientMessage message, WebResponse response, Stream responseStream, Boolean asyncCall)
   at System.Web.Services.Protocols.SoapHttpClientProtocol.Invoke(String methodName, Object[] parameters)
   at Bestprintbuy.Admin.Web.Usadata.ListModuleV3.Gateway.GatewayService.getOrderStatus(String Token) in d:\PPSOLAdmin\SRC\Web\Web References\Usadata.ListModuleV3.Gateway\Reference.cs:line 358
   at Bestprintbuy.Admin.Web.Customers.CheckUSLeadsList.CheckPendingUSLeadsForDownload() in d:\PPSOLAdmin\SRC\Web\Customers\CheckUSLeadsList.aspx.cs:line 55
------------------------------------------------------------------------
07/31/2013 12:43:42 PM : System.Web.Services.Protocols.SoapException: Server was unable to process request. ---> System.ArgumentException: Invalid or expired token.
   at Usadata.ListModuleV3.GatewayService.getOrderStatus(String Token) in E:\Work\USADATA\01-Trunk\SBP_Original\listmodulev3\GatewayService.vb:line 1146
   --- End of inner exception stack trace ---
   at System.Web.Services.Protocols.SoapHttpClientProtocol.ReadResponse(SoapClientMessage message, WebResponse response, Stream responseStream, Boolean asyncCall)
   at System.Web.Services.Protocols.SoapHttpClientProtocol.Invoke(String methodName, Object[] parameters)
   at Bestprintbuy.Admin.Web.Usadata.ListModuleV3.Gateway.GatewayService.getOrderStatus(String Token) in d:\PPSOLAdmin\SRC\Web\Web References\Usadata.ListModuleV3.Gateway\Reference.cs:line 358
   at Bestprintbuy.Admin.Web.Customers.CheckUSLeadsList.CheckPendingUSLeadsForDownload() in d:\PPSOLAdmin\SRC\Web\Customers\CheckUSLeadsList.aspx.cs:line 55
------------------------------------------------------------------------
07/31/2013 12:44:47 PM : Thread was being aborted.
   at System.Threading.Thread.AbortInternal()
   at System.Threading.Thread.Abort(Object stateInfo)
   at System.Web.HttpResponse.AbortCurrentThread()
   at System.Web.HttpResponse.End()
   at System.Web.HttpResponse.Redirect(String url, Boolean endResponse, Boolean permanent)
   at System.Web.HttpResponse.Redirect(String url)
   at Bestprintbuy.Admin.Web.Common.PageBase.CheckAuthentication() in d:\PPSOLAdmin\SRC\Web\Common\PageBase.cs:line 208
   at Bestprintbuy.Admin.Web.Common.PageBase.OnInit(EventArgs e) in d:\PPSOLAdmin\SRC\Web\Common\PageBase.cs:line 190
------------------------------------------------------------------------
07/31/2013 12:45:02 PM : System.Web.Services.Protocols.SoapException: Server was unable to process request. ---> System.ArgumentException: Invalid or expired token.
   at Usadata.ListModuleV3.GatewayService.getOrderStatus(String Token) in E:\Work\USADATA\01-Trunk\SBP_Original\listmodulev3\GatewayService.vb:line 1146
   --- End of inner exception stack trace ---
   at System.Web.Services.Protocols.SoapHttpClientProtocol.ReadResponse(SoapClientMessage message, WebResponse response, Stream responseStream, Boolean asyncCall)
   at System.Web.Services.Protocols.SoapHttpClientProtocol.Invoke(String methodName, Object[] parameters)
   at Bestprintbuy.Admin.Web.Usadata.ListModuleV3.Gateway.GatewayService.getOrderStatus(String Token) in d:\PPSOLAdmin\SRC\Web\Web References\Usadata.ListModuleV3.Gateway\Reference.cs:line 358
   at Bestprintbuy.Admin.Web.Customers.CheckUSLeadsList.CheckPendingUSLeadsForDownload() in d:\PPSOLAdmin\SRC\Web\Customers\CheckUSLeadsList.aspx.cs:line 55
------------------------------------------------------------------------
07/31/2013 12:45:05 PM : System.Web.Services.Protocols.SoapException: Server was unable to process request. ---> System.ArgumentException: Invalid or expired token.
   at Usadata.ListModuleV3.GatewayService.getOrderStatus(String Token) in E:\Work\USADATA\01-Trunk\SBP_Original\listmodulev3\GatewayService.vb:line 1146
   --- End of inner exception stack trace ---
   at System.Web.Services.Protocols.SoapHttpClientProtocol.ReadResponse(SoapClientMessage message, WebResponse response, Stream responseStream, Boolean asyncCall)
   at System.Web.Services.Protocols.SoapHttpClientProtocol.Invoke(String methodName, Object[] parameters)
   at Bestprintbuy.Admin.Web.Usadata.ListModuleV3.Gateway.GatewayService.getOrderStatus(String Token) in d:\PPSOLAdmin\SRC\Web\Web References\Usadata.ListModuleV3.Gateway\Reference.cs:line 358
   at Bestprintbuy.Admin.Web.Customers.CheckUSLeadsList.CheckPendingUSLeadsForDownload() in d:\PPSOLAdmin\SRC\Web\Customers\CheckUSLeadsList.aspx.cs:line 55
------------------------------------------------------------------------
07/31/2013 12:45:44 PM : Thread was being aborted.
   at System.Threading.Thread.AbortInternal()
   at System.Threading.Thread.Abort(Object stateInfo)
   at System.Web.HttpResponse.AbortCurrentThread()
   at System.Web.HttpResponse.End()
   at System.Web.HttpResponse.Redirect(String url, Boolean endResponse, Boolean permanent)
   at System.Web.HttpResponse.Redirect(String url)
   at Bestprintbuy.Admin.Web.Common.PageBase.CheckAuthentication() in d:\PPSOLAdmin\SRC\Web\Common\PageBase.cs:line 208
   at Bestprintbuy.Admin.Web.Common.PageBase.OnInit(EventArgs e) in d:\PPSOLAdmin\SRC\Web\Common\PageBase.cs:line 190
------------------------------------------------------------------------
07/31/2013 12:45:44 PM : Thread was being aborted.
   at System.Threading.Thread.AbortInternal()
   at System.Threading.Thread.Abort(Object stateInfo)
   at System.Web.HttpResponse.AbortCurrentThread()
   at System.Web.HttpResponse.End()
   at System.Web.HttpResponse.Redirect(String url, Boolean endResponse, Boolean permanent)
   at System.Web.HttpResponse.Redirect(String url)
   at Bestprintbuy.Admin.Web.Common.PageBase.CheckAuthentication() in d:\PPSOLAdmin\SRC\Web\Common\PageBase.cs:line 212
   at Bestprintbuy.Admin.Web.Common.PageBase.OnInit(EventArgs e) in d:\PPSOLAdmin\SRC\Web\Common\PageBase.cs:line 190
------------------------------------------------------------------------
07/31/2013 12:46:01 PM : System.Web.Services.Protocols.SoapException: Server was unable to process request. ---> System.ArgumentException: Invalid or expired token.
   at Usadata.ListModuleV3.GatewayService.getOrderStatus(String Token) in E:\Work\USADATA\01-Trunk\SBP_Original\listmodulev3\GatewayService.vb:line 1146
   --- End of inner exception stack trace ---
   at System.Web.Services.Protocols.SoapHttpClientProtocol.ReadResponse(SoapClientMessage message, WebResponse response, Stream responseStream, Boolean asyncCall)
   at System.Web.Services.Protocols.SoapHttpClientProtocol.Invoke(String methodName, Object[] parameters)
   at Bestprintbuy.Admin.Web.Usadata.ListModuleV3.Gateway.GatewayService.getOrderStatus(String Token) in d:\PPSOLAdmin\SRC\Web\Web References\Usadata.ListModuleV3.Gateway\Reference.cs:line 358
   at Bestprintbuy.Admin.Web.Customers.CheckUSLeadsList.CheckPendingUSLeadsForDownload() in d:\PPSOLAdmin\SRC\Web\Customers\CheckUSLeadsList.aspx.cs:line 55
------------------------------------------------------------------------
07/31/2013 12:46:03 PM : System.Web.Services.Protocols.SoapException: Server was unable to process request. ---> System.ArgumentException: Invalid or expired token.
   at Usadata.ListModuleV3.GatewayService.getOrderStatus(String Token) in E:\Work\USADATA\01-Trunk\SBP_Original\listmodulev3\GatewayService.vb:line 1146
   --- End of inner exception stack trace ---
   at System.Web.Services.Protocols.SoapHttpClientProtocol.ReadResponse(SoapClientMessage message, WebResponse response, Stream responseStream, Boolean asyncCall)
   at System.Web.Services.Protocols.SoapHttpClientProtocol.Invoke(String methodName, Object[] parameters)
   at Bestprintbuy.Admin.Web.Usadata.ListModuleV3.Gateway.GatewayService.getOrderStatus(String Token) in d:\PPSOLAdmin\SRC\Web\Web References\Usadata.ListModuleV3.Gateway\Reference.cs:line 358
   at Bestprintbuy.Admin.Web.Customers.CheckUSLeadsList.CheckPendingUSLeadsForDownload() in d:\PPSOLAdmin\SRC\Web\Customers\CheckUSLeadsList.aspx.cs:line 55
------------------------------------------------------------------------
07/31/2013 12:46:44 PM : Thread was being aborted.
   at System.Threading.Thread.AbortInternal()
   at System.Threading.Thread.Abort(Object stateInfo)
   at System.Web.HttpResponse.AbortCurrentThread()
   at System.Web.HttpResponse.End()
   at System.Web.HttpResponse.Redirect(String url, Boolean endResponse, Boolean permanent)
   at System.Web.HttpResponse.Redirect(String url)
   at Bestprintbuy.Admin.Web.Common.PageBase.CheckAuthentication() in d:\PPSOLAdmin\SRC\Web\Common\PageBase.cs:line 212
   at Bestprintbuy.Admin.Web.Common.PageBase.OnInit(EventArgs e) in d:\PPSOLAdmin\SRC\Web\Common\PageBase.cs:line 190
------------------------------------------------------------------------
07/31/2013 12:46:58 PM : System.Web.Services.Protocols.SoapException: Server was unable to process request. ---> System.ArgumentException: Invalid or expired token.
   at Usadata.ListModuleV3.GatewayService.getOrderStatus(String Token) in E:\Work\USADATA\01-Trunk\SBP_Original\listmodulev3\GatewayService.vb:line 1146
   --- End of inner exception stack trace ---
   at System.Web.Services.Protocols.SoapHttpClientProtocol.ReadResponse(SoapClientMessage message, WebResponse response, Stream responseStream, Boolean asyncCall)
   at System.Web.Services.Protocols.SoapHttpClientProtocol.Invoke(String methodName, Object[] parameters)
   at Bestprintbuy.Admin.Web.Usadata.ListModuleV3.Gateway.GatewayService.getOrderStatus(String Token) in d:\PPSOLAdmin\SRC\Web\Web References\Usadata.ListModuleV3.Gateway\Reference.cs:line 358
   at Bestprintbuy.Admin.Web.Customers.CheckUSLeadsList.CheckPendingUSLeadsForDownload() in d:\PPSOLAdmin\SRC\Web\Customers\CheckUSLeadsList.aspx.cs:line 55
------------------------------------------------------------------------
07/31/2013 12:47:00 PM : System.Web.Services.Protocols.SoapException: Server was unable to process request. ---> System.ArgumentException: Invalid or expired token.
   at Usadata.ListModuleV3.GatewayService.getOrderStatus(String Token) in E:\Work\USADATA\01-Trunk\SBP_Original\listmodulev3\GatewayService.vb:line 1146
   --- End of inner exception stack trace ---
   at System.Web.Services.Protocols.SoapHttpClientProtocol.ReadResponse(SoapClientMessage message, WebResponse response, Stream responseStream, Boolean asyncCall)
   at System.Web.Services.Protocols.SoapHttpClientProtocol.Invoke(String methodName, Object[] parameters)
   at Bestprintbuy.Admin.Web.Usadata.ListModuleV3.Gateway.GatewayService.getOrderStatus(String Token) in d:\PPSOLAdmin\SRC\Web\Web References\Usadata.ListModuleV3.Gateway\Reference.cs:line 358
   at Bestprintbuy.Admin.Web.Customers.CheckUSLeadsList.CheckPendingUSLeadsForDownload() in d:\PPSOLAdmin\SRC\Web\Customers\CheckUSLeadsList.aspx.cs:line 55
------------------------------------------------------------------------
07/31/2013 12:47:50 PM : Thread was being aborted.
   at System.Threading.Thread.AbortInternal()
   at System.Threading.Thread.Abort(Object stateInfo)
   at System.Web.HttpResponse.AbortCurrentThread()
   at System.Web.HttpResponse.End()
   at System.Web.HttpResponse.Redirect(String url, Boolean endResponse, Boolean permanent)
   at System.Web.HttpResponse.Redirect(String url)
   at Bestprintbuy.Admin.Web.Common.PageBase.CheckAuthentication() in d:\PPSOLAdmin\SRC\Web\Common\PageBase.cs:line 208
   at Bestprintbuy.Admin.Web.Common.PageBase.OnInit(EventArgs e) in d:\PPSOLAdmin\SRC\Web\Common\PageBase.cs:line 190
------------------------------------------------------------------------
07/31/2013 12:48:10 PM : System.Web.Services.Protocols.SoapException: Server was unable to process request. ---> System.ArgumentException: Invalid or expired token.
   at Usadata.ListModuleV3.GatewayService.getOrderStatus(String Token) in E:\Work\USADATA\01-Trunk\SBP_Original\listmodulev3\GatewayService.vb:line 1146
   --- End of inner exception stack trace ---
   at System.Web.Services.Protocols.SoapHttpClientProtocol.ReadResponse(SoapClientMessage message, WebResponse response, Stream responseStream, Boolean asyncCall)
   at System.Web.Services.Protocols.SoapHttpClientProtocol.Invoke(String methodName, Object[] parameters)
   at Bestprintbuy.Admin.Web.Usadata.ListModuleV3.Gateway.GatewayService.getOrderStatus(String Token) in d:\PPSOLAdmin\SRC\Web\Web References\Usadata.ListModuleV3.Gateway\Reference.cs:line 358
   at Bestprintbuy.Admin.Web.Customers.CheckUSLeadsList.CheckPendingUSLeadsForDownload() in d:\PPSOLAdmin\SRC\Web\Customers\CheckUSLeadsList.aspx.cs:line 55
------------------------------------------------------------------------
07/31/2013 12:48:12 PM : System.Web.Services.Protocols.SoapException: Server was unable to process request. ---> System.ArgumentException: Invalid or expired token.
   at Usadata.ListModuleV3.GatewayService.getOrderStatus(String Token) in E:\Work\USADATA\01-Trunk\SBP_Original\listmodulev3\GatewayService.vb:line 1146
   --- End of inner exception stack trace ---
   at System.Web.Services.Protocols.SoapHttpClientProtocol.ReadResponse(SoapClientMessage message, WebResponse response, Stream responseStream, Boolean asyncCall)
   at System.Web.Services.Protocols.SoapHttpClientProtocol.Invoke(String methodName, Object[] parameters)
   at Bestprintbuy.Admin.Web.Usadata.ListModuleV3.Gateway.GatewayService.getOrderStatus(String Token) in d:\PPSOLAdmin\SRC\Web\Web References\Usadata.ListModuleV3.Gateway\Reference.cs:line 358
   at Bestprintbuy.Admin.Web.Customers.CheckUSLeadsList.CheckPendingUSLeadsForDownload() in d:\PPSOLAdmin\SRC\Web\Customers\CheckUSLeadsList.aspx.cs:line 55
------------------------------------------------------------------------
07/31/2013 12:48:37 PM : Thread was being aborted.
   at System.Threading.Thread.AbortInternal()
   at System.Threading.Thread.Abort(Object stateInfo)
   at System.Web.HttpResponse.AbortCurrentThread()
   at System.Web.HttpResponse.End()
   at System.Web.HttpResponse.Redirect(String url, Boolean endResponse, Boolean permanent)
   at System.Web.HttpResponse.Redirect(String url)
   at Bestprintbuy.Admin.Web.Common.PageBase.CheckAuthentication() in d:\PPSOLAdmin\SRC\Web\Common\PageBase.cs:line 208
   at Bestprintbuy.Admin.Web.Common.PageBase.OnInit(EventArgs e) in d:\PPSOLAdmin\SRC\Web\Common\PageBase.cs:line 190
------------------------------------------------------------------------
07/31/2013 12:48:55 PM : System.Web.Services.Protocols.SoapException: Server was unable to process request. ---> System.ArgumentException: Invalid or expired token.
   at Usadata.ListModuleV3.GatewayService.getOrderStatus(String Token) in E:\Work\USADATA\01-Trunk\SBP_Original\listmodulev3\GatewayService.vb:line 1146
   --- End of inner exception stack trace ---
   at System.Web.Services.Protocols.SoapHttpClientProtocol.ReadResponse(SoapClientMessage message, WebResponse response, Stream responseStream, Boolean asyncCall)
   at System.Web.Services.Protocols.SoapHttpClientProtocol.Invoke(String methodName, Object[] parameters)
   at Bestprintbuy.Admin.Web.Usadata.ListModuleV3.Gateway.GatewayService.getOrderStatus(String Token) in d:\PPSOLAdmin\SRC\Web\Web References\Usadata.ListModuleV3.Gateway\Reference.cs:line 358
   at Bestprintbuy.Admin.Web.Customers.CheckUSLeadsList.CheckPendingUSLeadsForDownload() in d:\PPSOLAdmin\SRC\Web\Customers\CheckUSLeadsList.aspx.cs:line 55
------------------------------------------------------------------------
07/31/2013 12:48:58 PM : System.Web.Services.Protocols.SoapException: Server was unable to process request. ---> System.ArgumentException: Invalid or expired token.
   at Usadata.ListModuleV3.GatewayService.getOrderStatus(String Token) in E:\Work\USADATA\01-Trunk\SBP_Original\listmodulev3\GatewayService.vb:line 1146
   --- End of inner exception stack trace ---
   at System.Web.Services.Protocols.SoapHttpClientProtocol.ReadResponse(SoapClientMessage message, WebResponse response, Stream responseStream, Boolean asyncCall)
   at System.Web.Services.Protocols.SoapHttpClientProtocol.Invoke(String methodName, Object[] parameters)
   at Bestprintbuy.Admin.Web.Usadata.ListModuleV3.Gateway.GatewayService.getOrderStatus(String Token) in d:\PPSOLAdmin\SRC\Web\Web References\Usadata.ListModuleV3.Gateway\Reference.cs:line 358
   at Bestprintbuy.Admin.Web.Customers.CheckUSLeadsList.CheckPendingUSLeadsForDownload() in d:\PPSOLAdmin\SRC\Web\Customers\CheckUSLeadsList.aspx.cs:line 55
------------------------------------------------------------------------
07/31/2013 12:49:37 PM : Thread was being aborted.
   at System.Threading.Thread.AbortInternal()
   at System.Threading.Thread.Abort(Object stateInfo)
   at System.Web.HttpResponse.AbortCurrentThread()
   at System.Web.HttpResponse.End()
   at System.Web.HttpResponse.Redirect(String url, Boolean endResponse, Boolean permanent)
   at System.Web.HttpResponse.Redirect(String url)
   at Bestprintbuy.Admin.Web.Common.PageBase.CheckAuthentication() in d:\PPSOLAdmin\SRC\Web\Common\PageBase.cs:line 212
   at Bestprintbuy.Admin.Web.Common.PageBase.OnInit(EventArgs e) in d:\PPSOLAdmin\SRC\Web\Common\PageBase.cs:line 190
------------------------------------------------------------------------
07/31/2013 12:49:53 PM : System.Web.Services.Protocols.SoapException: Server was unable to process request. ---> System.ArgumentException: Invalid or expired token.
   at Usadata.ListModuleV3.GatewayService.getOrderStatus(String Token) in E:\Work\USADATA\01-Trunk\SBP_Original\listmodulev3\GatewayService.vb:line 1146
   --- End of inner exception stack trace ---
   at System.Web.Services.Protocols.SoapHttpClientProtocol.ReadResponse(SoapClientMessage message, WebResponse response, Stream responseStream, Boolean asyncCall)
   at System.Web.Services.Protocols.SoapHttpClientProtocol.Invoke(String methodName, Object[] parameters)
   at Bestprintbuy.Admin.Web.Usadata.ListModuleV3.Gateway.GatewayService.getOrderStatus(String Token) in d:\PPSOLAdmin\SRC\Web\Web References\Usadata.ListModuleV3.Gateway\Reference.cs:line 358
   at Bestprintbuy.Admin.Web.Customers.CheckUSLeadsList.CheckPendingUSLeadsForDownload() in d:\PPSOLAdmin\SRC\Web\Customers\CheckUSLeadsList.aspx.cs:line 55
------------------------------------------------------------------------
07/31/2013 12:49:55 PM : System.Web.Services.Protocols.SoapException: Server was unable to process request. ---> System.ArgumentException: Invalid or expired token.
   at Usadata.ListModuleV3.GatewayService.getOrderStatus(String Token) in E:\Work\USADATA\01-Trunk\SBP_Original\listmodulev3\GatewayService.vb:line 1146
   --- End of inner exception stack trace ---
   at System.Web.Services.Protocols.SoapHttpClientProtocol.ReadResponse(SoapClientMessage message, WebResponse response, Stream responseStream, Boolean asyncCall)
   at System.Web.Services.Protocols.SoapHttpClientProtocol.Invoke(String methodName, Object[] parameters)
   at Bestprintbuy.Admin.Web.Usadata.ListModuleV3.Gateway.GatewayService.getOrderStatus(String Token) in d:\PPSOLAdmin\SRC\Web\Web References\Usadata.ListModuleV3.Gateway\Reference.cs:line 358
   at Bestprintbuy.Admin.Web.Customers.CheckUSLeadsList.CheckPendingUSLeadsForDownload() in d:\PPSOLAdmin\SRC\Web\Customers\CheckUSLeadsList.aspx.cs:line 55
------------------------------------------------------------------------
07/31/2013 12:50:10 PM : Thread was being aborted.
   at System.Threading.Thread.AbortInternal()
   at System.Threading.Thread.Abort(Object stateInfo)
   at System.Web.HttpResponse.AbortCurrentThread()
   at System.Web.HttpResponse.End()
   at System.Web.HttpResponse.Redirect(String url, Boolean endResponse, Boolean permanent)
   at System.Web.HttpResponse.Redirect(String url)
   at Bestprintbuy.Admin.Web.Common.PageBase.CheckAuthentication() in d:\PPSOLAdmin\SRC\Web\Common\PageBase.cs:line 212
   at Bestprintbuy.Admin.Web.Common.PageBase.OnInit(EventArgs e) in d:\PPSOLAdmin\SRC\Web\Common\PageBase.cs:line 190
------------------------------------------------------------------------
07/31/2013 12:50:29 PM : System.Web.Services.Protocols.SoapException: Server was unable to process request. ---> System.ArgumentException: Invalid or expired token.
   at Usadata.ListModuleV3.GatewayService.getOrderStatus(String Token) in E:\Work\USADATA\01-Trunk\SBP_Original\listmodulev3\GatewayService.vb:line 1146
   --- End of inner exception stack trace ---
   at System.Web.Services.Protocols.SoapHttpClientProtocol.ReadResponse(SoapClientMessage message, WebResponse response, Stream responseStream, Boolean asyncCall)
   at System.Web.Services.Protocols.SoapHttpClientProtocol.Invoke(String methodName, Object[] parameters)
   at Bestprintbuy.Admin.Web.Usadata.ListModuleV3.Gateway.GatewayService.getOrderStatus(String Token) in d:\PPSOLAdmin\SRC\Web\Web References\Usadata.ListModuleV3.Gateway\Reference.cs:line 358
   at Bestprintbuy.Admin.Web.Customers.CheckUSLeadsList.CheckPendingUSLeadsForDownload() in d:\PPSOLAdmin\SRC\Web\Customers\CheckUSLeadsList.aspx.cs:line 55
------------------------------------------------------------------------
07/31/2013 12:50:33 PM : System.Web.Services.Protocols.SoapException: Server was unable to process request. ---> System.ArgumentException: Invalid or expired token.
   at Usadata.ListModuleV3.GatewayService.getOrderStatus(String Token) in E:\Work\USADATA\01-Trunk\SBP_Original\listmodulev3\GatewayService.vb:line 1146
   --- End of inner exception stack trace ---
   at System.Web.Services.Protocols.SoapHttpClientProtocol.ReadResponse(SoapClientMessage message, WebResponse response, Stream responseStream, Boolean asyncCall)
   at System.Web.Services.Protocols.SoapHttpClientProtocol.Invoke(String methodName, Object[] parameters)
   at Bestprintbuy.Admin.Web.Usadata.ListModuleV3.Gateway.GatewayService.getOrderStatus(String Token) in d:\PPSOLAdmin\SRC\Web\Web References\Usadata.ListModuleV3.Gateway\Reference.cs:line 358
   at Bestprintbuy.Admin.Web.Customers.CheckUSLeadsList.CheckPendingUSLeadsForDownload() in d:\PPSOLAdmin\SRC\Web\Customers\CheckUSLeadsList.aspx.cs:line 55
------------------------------------------------------------------------
07/31/2013 12:51:16 PM : Thread was being aborted.
   at System.Threading.Thread.AbortInternal()
   at System.Threading.Thread.Abort(Object stateInfo)
   at System.Web.HttpResponse.AbortCurrentThread()
   at System.Web.HttpResponse.End()
   at System.Web.HttpResponse.Redirect(String url, Boolean endResponse, Boolean permanent)
   at System.Web.HttpResponse.Redirect(String url)
   at Bestprintbuy.Admin.Web.Common.PageBase.CheckAuthentication() in d:\PPSOLAdmin\SRC\Web\Common\PageBase.cs:line 212
   at Bestprintbuy.Admin.Web.Common.PageBase.OnInit(EventArgs e) in d:\PPSOLAdmin\SRC\Web\Common\PageBase.cs:line 190
------------------------------------------------------------------------
07/31/2013 12:51:25 PM : System.Web.Services.Protocols.SoapException: Server was unable to process request. ---> System.ArgumentException: Invalid or expired token.
   at Usadata.ListModuleV3.GatewayService.getOrderStatus(String Token) in E:\Work\USADATA\01-Trunk\SBP_Original\listmodulev3\GatewayService.vb:line 1146
   --- End of inner exception stack trace ---
   at System.Web.Services.Protocols.SoapHttpClientProtocol.ReadResponse(SoapClientMessage message, WebResponse response, Stream responseStream, Boolean asyncCall)
   at System.Web.Services.Protocols.SoapHttpClientProtocol.Invoke(String methodName, Object[] parameters)
   at Bestprintbuy.Admin.Web.Usadata.ListModuleV3.Gateway.GatewayService.getOrderStatus(String Token) in d:\PPSOLAdmin\SRC\Web\Web References\Usadata.ListModuleV3.Gateway\Reference.cs:line 358
   at Bestprintbuy.Admin.Web.Customers.CheckUSLeadsList.CheckPendingUSLeadsForDownload() in d:\PPSOLAdmin\SRC\Web\Customers\CheckUSLeadsList.aspx.cs:line 55
------------------------------------------------------------------------
07/31/2013 12:52:00 PM : System.Web.Services.Protocols.SoapException: Server was unable to process request. ---> System.ArgumentException: Invalid or expired token.
   at Usadata.ListModuleV3.GatewayService.getOrderStatus(String Token) in E:\Work\USADATA\01-Trunk\SBP_Original\listmodulev3\GatewayService.vb:line 1146
   --- End of inner exception stack trace ---
   at System.Web.Services.Protocols.SoapHttpClientProtocol.ReadResponse(SoapClientMessage message, WebResponse response, Stream responseStream, Boolean asyncCall)
   at System.Web.Services.Protocols.SoapHttpClientProtocol.Invoke(String methodName, Object[] parameters)
   at Bestprintbuy.Admin.Web.Usadata.ListModuleV3.Gateway.GatewayService.getOrderStatus(String Token) in d:\PPSOLAdmin\SRC\Web\Web References\Usadata.ListModuleV3.Gateway\Reference.cs:line 358
   at Bestprintbuy.Admin.Web.Customers.CheckUSLeadsList.CheckPendingUSLeadsForDownload() in d:\PPSOLAdmin\SRC\Web\Customers\CheckUSLeadsList.aspx.cs:line 55
------------------------------------------------------------------------
07/31/2013 12:52:38 PM : Thread was being aborted.
   at System.Threading.Thread.AbortInternal()
   at System.Threading.Thread.Abort(Object stateInfo)
   at System.Web.HttpResponse.AbortCurrentThread()
   at System.Web.HttpResponse.End()
   at System.Web.HttpResponse.Redirect(String url, Boolean endResponse, Boolean permanent)
   at System.Web.HttpResponse.Redirect(String url)
   at Bestprintbuy.Admin.Web.Common.PageBase.CheckAuthentication() in d:\PPSOLAdmin\SRC\Web\Common\PageBase.cs:line 208
   at Bestprintbuy.Admin.Web.Common.PageBase.OnInit(EventArgs e) in d:\PPSOLAdmin\SRC\Web\Common\PageBase.cs:line 190
------------------------------------------------------------------------
07/31/2013 12:52:48 PM : System.Web.Services.Protocols.SoapException: Server was unable to process request. ---> System.ArgumentException: Invalid or expired token.
   at Usadata.ListModuleV3.GatewayService.getOrderStatus(String Token) in E:\Work\USADATA\01-Trunk\SBP_Original\listmodulev3\GatewayService.vb:line 1146
   --- End of inner exception stack trace ---
   at System.Web.Services.Protocols.SoapHttpClientProtocol.ReadResponse(SoapClientMessage message, WebResponse response, Stream responseStream, Boolean asyncCall)
   at System.Web.Services.Protocols.SoapHttpClientProtocol.Invoke(String methodName, Object[] parameters)
   at Bestprintbuy.Admin.Web.Usadata.ListModuleV3.Gateway.GatewayService.getOrderStatus(String Token) in d:\PPSOLAdmin\SRC\Web\Web References\Usadata.ListModuleV3.Gateway\Reference.cs:line 358
   at Bestprintbuy.Admin.Web.Customers.CheckUSLeadsList.CheckPendingUSLeadsForDownload() in d:\PPSOLAdmin\SRC\Web\Customers\CheckUSLeadsList.aspx.cs:line 55
------------------------------------------------------------------------
07/31/2013 12:52:52 PM : System.Web.Services.Protocols.SoapException: Server was unable to process request. ---> System.ArgumentException: Invalid or expired token.
   at Usadata.ListModuleV3.GatewayService.getOrderStatus(String Token) in E:\Work\USADATA\01-Trunk\SBP_Original\listmodulev3\GatewayService.vb:line 1146
   --- End of inner exception stack trace ---
   at System.Web.Services.Protocols.SoapHttpClientProtocol.ReadResponse(SoapClientMessage message, WebResponse response, Stream responseStream, Boolean asyncCall)
   at System.Web.Services.Protocols.SoapHttpClientProtocol.Invoke(String methodName, Object[] parameters)
   at Bestprintbuy.Admin.Web.Usadata.ListModuleV3.Gateway.GatewayService.getOrderStatus(String Token) in d:\PPSOLAdmin\SRC\Web\Web References\Usadata.ListModuleV3.Gateway\Reference.cs:line 358
   at Bestprintbuy.Admin.Web.Customers.CheckUSLeadsList.CheckPendingUSLeadsForDownload() in d:\PPSOLAdmin\SRC\Web\Customers\CheckUSLeadsList.aspx.cs:line 55
------------------------------------------------------------------------
07/31/2013 12:54:47 PM : Thread was being aborted.
   at System.Threading.Thread.AbortInternal()
   at System.Threading.Thread.Abort(Object stateInfo)
   at System.Web.HttpResponse.AbortCurrentThread()
   at System.Web.HttpResponse.End()
   at System.Web.HttpResponse.Redirect(String url, Boolean endResponse, Boolean permanent)
   at System.Web.HttpResponse.Redirect(String url)
   at Bestprintbuy.Admin.Web.Common.PageBase.CheckAuthentication() in d:\PPSOLAdmin\SRC\Web\Common\PageBase.cs:line 212
   at Bestprintbuy.Admin.Web.Common.PageBase.OnInit(EventArgs e) in d:\PPSOLAdmin\SRC\Web\Common\PageBase.cs:line 190
------------------------------------------------------------------------
07/31/2013 12:55:03 PM : System.Web.Services.Protocols.SoapException: Server was unable to process request. ---> System.ArgumentException: Invalid or expired token.
   at Usadata.ListModuleV3.GatewayService.getOrderStatus(String Token) in E:\Work\USADATA\01-Trunk\SBP_Original\listmodulev3\GatewayService.vb:line 1146
   --- End of inner exception stack trace ---
   at System.Web.Services.Protocols.SoapHttpClientProtocol.ReadResponse(SoapClientMessage message, WebResponse response, Stream responseStream, Boolean asyncCall)
   at System.Web.Services.Protocols.SoapHttpClientProtocol.Invoke(String methodName, Object[] parameters)
   at Bestprintbuy.Admin.Web.Usadata.ListModuleV3.Gateway.GatewayService.getOrderStatus(String Token) in d:\PPSOLAdmin\SRC\Web\Web References\Usadata.ListModuleV3.Gateway\Reference.cs:line 358
   at Bestprintbuy.Admin.Web.Customers.CheckUSLeadsList.CheckPendingUSLeadsForDownload() in d:\PPSOLAdmin\SRC\Web\Customers\CheckUSLeadsList.aspx.cs:line 55
------------------------------------------------------------------------
07/31/2013 12:55:06 PM : System.Web.Services.Protocols.SoapException: Server was unable to process request. ---> System.ArgumentException: Invalid or expired token.
   at Usadata.ListModuleV3.GatewayService.getOrderStatus(String Token) in E:\Work\USADATA\01-Trunk\SBP_Original\listmodulev3\GatewayService.vb:line 1146
   --- End of inner exception stack trace ---
   at System.Web.Services.Protocols.SoapHttpClientProtocol.ReadResponse(SoapClientMessage message, WebResponse response, Stream responseStream, Boolean asyncCall)
   at System.Web.Services.Protocols.SoapHttpClientProtocol.Invoke(String methodName, Object[] parameters)
   at Bestprintbuy.Admin.Web.Usadata.ListModuleV3.Gateway.GatewayService.getOrderStatus(String Token) in d:\PPSOLAdmin\SRC\Web\Web References\Usadata.ListModuleV3.Gateway\Reference.cs:line 358
   at Bestprintbuy.Admin.Web.Customers.CheckUSLeadsList.CheckPendingUSLeadsForDownload() in d:\PPSOLAdmin\SRC\Web\Customers\CheckUSLeadsList.aspx.cs:line 55
------------------------------------------------------------------------
07/31/2013 12:55:39 PM : System.Web.Services.Protocols.SoapException: Server was unable to process request. ---> System.ArgumentException: Invalid or expired token.
   at Usadata.ListModuleV3.GatewayService.getOrderStatus(String Token) in E:\Work\USADATA\01-Trunk\SBP_Original\listmodulev3\GatewayService.vb:line 1146
   --- End of inner exception stack trace ---
   at System.Web.Services.Protocols.SoapHttpClientProtocol.ReadResponse(SoapClientMessage message, WebResponse response, Stream responseStream, Boolean asyncCall)
   at System.Web.Services.Protocols.SoapHttpClientProtocol.Invoke(String methodName, Object[] parameters)
   at Bestprintbuy.Admin.Web.Usadata.ListModuleV3.Gateway.GatewayService.getOrderStatus(String Token) in d:\PPSOLAdmin\SRC\Web\Web References\Usadata.ListModuleV3.Gateway\Reference.cs:line 358
   at Bestprintbuy.Admin.Web.Customers.CheckUSLeadsList.CheckPendingUSLeadsForDownload() in d:\PPSOLAdmin\SRC\Web\Customers\CheckUSLeadsList.aspx.cs:line 55
------------------------------------------------------------------------
07/31/2013 12:55:44 PM : System.Web.Services.Protocols.SoapException: Server was unable to process request. ---> System.ArgumentException: Invalid or expired token.
   at Usadata.ListModuleV3.GatewayService.getOrderStatus(String Token) in E:\Work\USADATA\01-Trunk\SBP_Original\listmodulev3\GatewayService.vb:line 1146
   --- End of inner exception stack trace ---
   at System.Web.Services.Protocols.SoapHttpClientProtocol.ReadResponse(SoapClientMessage message, WebResponse response, Stream responseStream, Boolean asyncCall)
   at System.Web.Services.Protocols.SoapHttpClientProtocol.Invoke(String methodName, Object[] parameters)
   at Bestprintbuy.Admin.Web.Usadata.ListModuleV3.Gateway.GatewayService.getOrderStatus(String Token) in d:\PPSOLAdmin\SRC\Web\Web References\Usadata.ListModuleV3.Gateway\Reference.cs:line 358
   at Bestprintbuy.Admin.Web.Customers.CheckUSLeadsList.CheckPendingUSLeadsForDownload() in d:\PPSOLAdmin\SRC\Web\Customers\CheckUSLeadsList.aspx.cs:line 55
------------------------------------------------------------------------
07/31/2013 01:04:56 PM : Thread was being aborted.
   at System.Threading.Thread.AbortInternal()
   at System.Threading.Thread.Abort(Object stateInfo)
   at System.Web.HttpResponse.AbortCurrentThread()
   at System.Web.HttpResponse.End()
   at System.Web.HttpResponse.Redirect(String url, Boolean endResponse, Boolean permanent)
   at System.Web.HttpResponse.Redirect(String url)
   at Bestprintbuy.Admin.Web.Common.PageBase.CheckAuthentication() in d:\PPSOLAdmin\SRC\Web\Common\PageBase.cs:line 212
   at Bestprintbuy.Admin.Web.Common.PageBase.OnInit(EventArgs e) in d:\PPSOLAdmin\SRC\Web\Common\PageBase.cs:line 190
------------------------------------------------------------------------
07/31/2013 01:59:03 PM : System.Web.Services.Protocols.SoapException: Server was unable to process request. ---> System.ArgumentException: Invalid or expired token.
   at Usadata.ListModuleV3.GatewayService.getOrderStatus(String Token) in E:\Work\USADATA\01-Trunk\SBP_Original\listmodulev3\GatewayService.vb:line 1146
   --- End of inner exception stack trace ---
   at System.Web.Services.Protocols.SoapHttpClientProtocol.ReadResponse(SoapClientMessage message, WebResponse response, Stream responseStream, Boolean asyncCall)
   at System.Web.Services.Protocols.SoapHttpClientProtocol.Invoke(String methodName, Object[] parameters)
   at Bestprintbuy.Admin.Web.Usadata.ListModuleV3.Gateway.GatewayService.getOrderStatus(String Token) in d:\PPSOLAdmin\SRC\Web\Web References\Usadata.ListModuleV3.Gateway\Reference.cs:line 358
   at Bestprintbuy.Admin.Web.Customers.CheckUSLeadsList.CheckPendingUSLeadsForDownload() in d:\PPSOLAdmin\SRC\Web\Customers\CheckUSLeadsList.aspx.cs:line 55
------------------------------------------------------------------------
07/31/2013 02:11:51 PM : System.Web.Services.Protocols.SoapException: Server was unable to process request. ---> System.ArgumentException: Invalid or expired token.
   at Usadata.ListModuleV3.GatewayService.getOrderStatus(String Token) in E:\Work\USADATA\01-Trunk\SBP_Original\listmodulev3\GatewayService.vb:line 1146
   --- End of inner exception stack trace ---
   at System.Web.Services.Protocols.SoapHttpClientProtocol.ReadResponse(SoapClientMessage message, WebResponse response, Stream responseStream, Boolean asyncCall)
   at System.Web.Services.Protocols.SoapHttpClientProtocol.Invoke(String methodName, Object[] parameters)
   at Bestprintbuy.Admin.Web.Usadata.ListModuleV3.Gateway.GatewayService.getOrderStatus(String Token) in d:\PPSOLAdmin\SRC\Web\Web References\Usadata.ListModuleV3.Gateway\Reference.cs:line 358
   at Bestprintbuy.Admin.Web.Customers.CheckUSLeadsList.CheckPendingUSLeadsForDownload() in d:\PPSOLAdmin\SRC\Web\Customers\CheckUSLeadsList.aspx.cs:line 55
------------------------------------------------------------------------
07/31/2013 02:29:11 PM : System.Web.Services.Protocols.SoapException: Server was unable to process request. ---> System.ArgumentException: Invalid or expired token.
   at Usadata.ListModuleV3.GatewayService.getOrderStatus(String Token) in E:\Work\USADATA\01-Trunk\SBP_Original\listmodulev3\GatewayService.vb:line 1146
   --- End of inner exception stack trace ---
   at System.Web.Services.Protocols.SoapHttpClientProtocol.ReadResponse(SoapClientMessage message, WebResponse response, Stream responseStream, Boolean asyncCall)
   at System.Web.Services.Protocols.SoapHttpClientProtocol.Invoke(String methodName, Object[] parameters)
   at Bestprintbuy.Admin.Web.Usadata.ListModuleV3.Gateway.GatewayService.getOrderStatus(String Token) in d:\PPSOLAdmin\SRC\Web\Web References\Usadata.ListModuleV3.Gateway\Reference.cs:line 358
   at Bestprintbuy.Admin.Web.Customers.CheckUSLeadsList.CheckPendingUSLeadsForDownload() in d:\PPSOLAdmin\SRC\Web\Customers\CheckUSLeadsList.aspx.cs:line 55
------------------------------------------------------------------------
07/31/2013 02:29:36 PM : System.Web.Services.Protocols.SoapException: Server was unable to process request. ---> System.ArgumentException: Invalid or expired token.
   at Usadata.ListModuleV3.GatewayService.getOrderStatus(String Token) in E:\Work\USADATA\01-Trunk\SBP_Original\listmodulev3\GatewayService.vb:line 1146
   --- End of inner exception stack trace ---
   at System.Web.Services.Protocols.SoapHttpClientProtocol.ReadResponse(SoapClientMessage message, WebResponse response, Stream responseStream, Boolean asyncCall)
   at System.Web.Services.Protocols.SoapHttpClientProtocol.Invoke(String methodName, Object[] parameters)
   at Bestprintbuy.Admin.Web.Usadata.ListModuleV3.Gateway.GatewayService.getOrderStatus(String Token) in d:\PPSOLAdmin\SRC\Web\Web References\Usadata.ListModuleV3.Gateway\Reference.cs:line 358
   at Bestprintbuy.Admin.Web.Customers.CheckUSLeadsList.CheckPendingUSLeadsForDownload() in d:\PPSOLAdmin\SRC\Web\Customers\CheckUSLeadsList.aspx.cs:line 55
------------------------------------------------------------------------
07/31/2013 02:32:30 PM : System.Web.Services.Protocols.SoapException: Server was unable to process request. ---> System.ArgumentException: Invalid or expired token.
   at Usadata.ListModuleV3.GatewayService.getOrderStatus(String Token) in E:\Work\USADATA\01-Trunk\SBP_Original\listmodulev3\GatewayService.vb:line 1146
   --- End of inner exception stack trace ---
   at System.Web.Services.Protocols.SoapHttpClientProtocol.ReadResponse(SoapClientMessage message, WebResponse response, Stream responseStream, Boolean asyncCall)
   at System.Web.Services.Protocols.SoapHttpClientProtocol.Invoke(String methodName, Object[] parameters)
   at Bestprintbuy.Admin.Web.Usadata.ListModuleV3.Gateway.GatewayService.getOrderStatus(String Token) in d:\PPSOLAdmin\SRC\Web\Web References\Usadata.ListModuleV3.Gateway\Reference.cs:line 358
   at Bestprintbuy.Admin.Web.Customers.CheckUSLeadsList.CheckPendingUSLeadsForDownload() in d:\PPSOLAdmin\SRC\Web\Customers\CheckUSLeadsList.aspx.cs:line 55
------------------------------------------------------------------------
07/31/2013 03:04:12 PM : Thread was being aborted.
   at System.Threading.Thread.AbortInternal()
   at System.Threading.Thread.Abort(Object stateInfo)
   at System.Web.HttpResponse.AbortCurrentThread()
   at System.Web.HttpResponse.End()
   at System.Web.HttpResponse.Redirect(String url, Boolean endResponse, Boolean permanent)
   at System.Web.HttpResponse.Redirect(String url)
   at Bestprintbuy.Admin.Web.Common.PageBase.CheckAuthentication() in d:\PPSOLAdmin\SRC\Web\Common\PageBase.cs:line 212
   at Bestprintbuy.Admin.Web.Common.PageBase.OnInit(EventArgs e) in d:\PPSOLAdmin\SRC\Web\Common\PageBase.cs:line 190
------------------------------------------------------------------------
07/31/2013 03:41:32 PM : Thread was being aborted.
   at System.Threading.Thread.AbortInternal()
   at System.Threading.Thread.Abort(Object stateInfo)
   at System.Web.HttpResponse.AbortCurrentThread()
   at System.Web.HttpResponse.End()
   at System.Web.HttpResponse.Redirect(String url, Boolean endResponse, Boolean permanent)
   at System.Web.HttpResponse.Redirect(String url)
   at Bestprintbuy.Admin.Web.Common.PageBase.CheckAuthentication() in d:\PPSOLAdmin\SRC\Web\Common\PageBase.cs:line 212
   at Bestprintbuy.Admin.Web.Common.PageBase.OnInit(EventArgs e) in d:\PPSOLAdmin\SRC\Web\Common\PageBase.cs:line 190
------------------------------------------------------------------------
07/31/2013 04:51:26 PM : Thread was being aborted.
   at System.Threading.Thread.AbortInternal()
   at System.Threading.Thread.Abort(Object stateInfo)
   at System.Web.HttpResponse.AbortCurrentThread()
   at System.Web.HttpResponse.End()
   at System.Web.HttpResponse.Redirect(String url, Boolean endResponse, Boolean permanent)
   at System.Web.HttpResponse.Redirect(String url)
   at Bestprintbuy.Admin.Web.Common.PageBase.CheckAuthentication() in d:\PPSOLAdmin\SRC\Web\Common\PageBase.cs:line 212
   at Bestprintbuy.Admin.Web.Common.PageBase.OnInit(EventArgs e) in d:\PPSOLAdmin\SRC\Web\Common\PageBase.cs:line 190
------------------------------------------------------------------------
07/31/2013 05:40:32 PM : Thread was being aborted.
   at System.Threading.Thread.AbortInternal()
   at System.Threading.Thread.Abort(Object stateInfo)
   at System.Web.HttpResponse.AbortCurrentThread()
   at System.Web.HttpResponse.End()
   at System.Web.HttpResponse.Redirect(String url, Boolean endResponse, Boolean permanent)
   at System.Web.HttpResponse.Redirect(String url)
   at Bestprintbuy.Admin.Web.Products.HomeScrollMessageDetail.btnSave_Click(Object sender, EventArgs e) in d:\PPSOLAdmin\SRC\Web\Products\HomeScrollMessageDetail.aspx.cs:line 61
------------------------------------------------------------------------
07/31/2013 05:41:23 PM : Thread was being aborted.
   at System.Threading.Thread.AbortInternal()
   at System.Threading.Thread.Abort(Object stateInfo)
   at System.Web.HttpResponse.AbortCurrentThread()
   at System.Web.HttpResponse.End()
   at System.Web.HttpResponse.Redirect(String url, Boolean endResponse, Boolean permanent)
   at System.Web.HttpResponse.Redirect(String url)
   at Bestprintbuy.Admin.Web.Products.HomeScrollMessageDetail.btnSave_Click(Object sender, EventArgs e) in d:\PPSOLAdmin\SRC\Web\Products\HomeScrollMessageDetail.aspx.cs:line 61
------------------------------------------------------------------------
07/31/2013 05:43:18 PM : Thread was being aborted.
   at System.Threading.Thread.AbortInternal()
   at System.Threading.Thread.Abort(Object stateInfo)
   at System.Web.HttpResponse.AbortCurrentThread()
   at System.Web.HttpResponse.End()
   at System.Web.HttpResponse.Redirect(String url, Boolean endResponse, Boolean permanent)
   at System.Web.HttpResponse.Redirect(String url)
   at Bestprintbuy.Admin.Web.Common.PageBase.CheckAuthentication() in d:\PPSOLAdmin\SRC\Web\Common\PageBase.cs:line 212
   at Bestprintbuy.Admin.Web.Common.PageBase.OnInit(EventArgs e) in d:\PPSOLAdmin\SRC\Web\Common\PageBase.cs:line 190
------------------------------------------------------------------------
07/31/2013 06:15:36 PM : Thread was being aborted.
   at System.Threading.Thread.AbortInternal()
   at System.Threading.Thread.Abort(Object stateInfo)
   at System.Web.HttpResponse.AbortCurrentThread()
   at System.Web.HttpResponse.End()
   at System.Web.HttpResponse.Redirect(String url, Boolean endResponse, Boolean permanent)
   at System.Web.HttpResponse.Redirect(String url)
   at Bestprintbuy.Admin.Web.SystemConfig.KiosksCompanyList.btnAddCompanyLogo_Click(Object sender, EventArgs e) in d:\PPSOLAdmin\SRC\Web\SystemConfig\KiosksCompanyList.aspx.cs:line 91
------------------------------------------------------------------------
07/31/2013 06:17:35 PM : Thread was being aborted.
   at System.Threading.Thread.AbortInternal()
   at System.Threading.Thread.Abort(Object stateInfo)
   at System.Web.HttpResponse.AbortCurrentThread()
   at System.Web.HttpResponse.End()
   at System.Web.HttpResponse.Redirect(String url, Boolean endResponse, Boolean permanent)
   at System.Web.HttpResponse.Redirect(String url)
   at Bestprintbuy.Admin.Web.Products.XSellProducts.btnSave_Click(Object sender, EventArgs e) in d:\PPSOLAdmin\SRC\Web\Products\XSellProducts.aspx.cs:line 94
------------------------------------------------------------------------
07/31/2013 06:18:49 PM : Thread was being aborted.
   at System.Threading.Thread.AbortInternal()
   at System.Threading.Thread.Abort(Object stateInfo)
   at System.Web.HttpResponse.AbortCurrentThread()
   at System.Web.HttpResponse.End()
   at System.Web.HttpResponse.Redirect(String url, Boolean endResponse, Boolean permanent)
   at System.Web.HttpResponse.Redirect(String url)
   at Bestprintbuy.Admin.Web.Products.XSellProducts.btnSave_Click(Object sender, EventArgs e) in d:\PPSOLAdmin\SRC\Web\Products\XSellProducts.aspx.cs:line 94
------------------------------------------------------------------------
07/31/2013 06:19:01 PM : Thread was being aborted.
   at System.Threading.Thread.AbortInternal()
   at System.Threading.Thread.Abort(Object stateInfo)
   at System.Web.HttpResponse.AbortCurrentThread()
   at System.Web.HttpResponse.End()
   at System.Web.HttpResponse.Redirect(String url, Boolean endResponse, Boolean permanent)
   at System.Web.HttpResponse.Redirect(String url)
   at Bestprintbuy.Admin.Web.Products.XSellDiscountDetails.btnSave_Click(Object sender, EventArgs e) in d:\PPSOLAdmin\SRC\Web\Products\XSellDiscountDetails.aspx.cs:line 148
------------------------------------------------------------------------
07/31/2013 08:33:22 PM : Thread was being aborted.
   at System.Threading.Thread.AbortInternal()
   at System.Threading.Thread.Abort(Object stateInfo)
   at System.Web.HttpResponse.AbortCurrentThread()
   at System.Web.HttpResponse.End()
   at System.Web.HttpResponse.Redirect(String url, Boolean endResponse, Boolean permanent)
   at System.Web.HttpResponse.Redirect(String url)
   at Bestprintbuy.Admin.Web.Common.PageBase.CheckAuthentication() in d:\PPSOLAdmin\SRC\Web\Common\PageBase.cs:line 212
   at Bestprintbuy.Admin.Web.Common.PageBase.OnInit(EventArgs e) in d:\PPSOLAdmin\SRC\Web\Common\PageBase.cs:line 190
------------------------------------------------------------------------
07/31/2013 08:34:37 PM : Procedure or Function 'INS_CUST_PO_DTL_SERVICEREP_COMMENTS' expects parameter '@FKEY_CUST_PO_DTL', which was not supplied.
   at System.Data.SqlClient.SqlConnection.OnError(SqlException exception, Boolean breakConnection, Action`1 wrapCloseInAction)
   at System.Data.SqlClient.SqlInternalConnection.OnError(SqlException exception, Boolean breakConnection, Action`1 wrapCloseInAction)
   at System.Data.SqlClient.TdsParser.ThrowExceptionAndWarning(TdsParserStateObject stateObj, Boolean callerHasConnectionLock, Boolean asyncClose)
   at System.Data.SqlClient.TdsParser.TryRun(RunBehavior runBehavior, SqlCommand cmdHandler, SqlDataReader dataStream, BulkCopySimpleResultSet bulkCopyHandler, TdsParserStateObject stateObj, Boolean& dataReady)
   at System.Data.SqlClient.SqlDataReader.TryConsumeMetaData()
   at System.Data.SqlClient.SqlDataReader.get_MetaData()
   at System.Data.SqlClient.SqlCommand.FinishExecuteReader(SqlDataReader ds, RunBehavior runBehavior, String resetOptionsString)
   at System.Data.SqlClient.SqlCommand.RunExecuteReaderTds(CommandBehavior cmdBehavior, RunBehavior runBehavior, Boolean returnStream, Boolean async, Int32 timeout, Task& task, Boolean asyncWrite)
   at System.Data.SqlClient.SqlCommand.RunExecuteReader(CommandBehavior cmdBehavior, RunBehavior runBehavior, Boolean returnStream, String method, TaskCompletionSource`1 completion, Int32 timeout, Task& task, Boolean asyncWrite)
   at System.Data.SqlClient.SqlCommand.RunExecuteReader(CommandBehavior cmdBehavior, RunBehavior runBehavior, Boolean returnStream, String method)
   at System.Data.SqlClient.SqlCommand.ExecuteReader(CommandBehavior behavior, String method)
   at System.Data.SqlClient.SqlCommand.ExecuteDbDataReader(CommandBehavior behavior)
   at System.Data.Common.DbCommand.System.Data.IDbCommand.ExecuteReader(CommandBehavior behavior)
   at System.Data.Common.DbDataAdapter.FillInternal(DataSet dataset, DataTable[] datatables, Int32 startRecord, Int32 maxRecords, String srcTable, IDbCommand command, CommandBehavior behavior)
   at System.Data.Common.DbDataAdapter.Fill(DataSet dataSet, Int32 startRecord, Int32 maxRecords, String srcTable, IDbCommand command, CommandBehavior behavior)
   at System.Data.Common.DbDataAdapter.Fill(DataSet dataSet, String srcTable)
   at Bestprintbuy.Admin.DataAccess.SqlHelper.ExecuteBpbDataset(SqlConnection connection, CommandType commandType, String commandText, DataSet ds, String tableName, SqlParameter[] commandParameters) in d:\PPSOLAdmin\SRC\DataAccess\SQLHelper.cs:line 778
   at Bestprintbuy.Admin.DataAccess.SqlHelper.ExecuteBpbDataset(String connectionString, CommandType commandType, String commandText, DataSet ds, String tableName, SqlParameter[] commandParameters) in d:\PPSOLAdmin\SRC\DataAccess\SQLHelper.cs:line 689
   at Bestprintbuy.Admin.DataAccess.CustomerAccess.UpdateCustServiceNotes(SupplierPOModel poModel, String strDBConn) in d:\PPSOLAdmin\SRC\DataAccess\CustomerAccess.cs:line 1735
------------------------------------------------------------------------
07/31/2013 08:34:37 PM : Procedure or Function 'INS_CUST_PO_DTL_SERVICEREP_COMMENTS' expects parameter '@FKEY_CUST_PO_DTL', which was not supplied.
   at Bestprintbuy.Admin.DataAccess.CustomerAccess.UpdateCustServiceNotes(SupplierPOModel poModel, String strDBConn) in d:\PPSOLAdmin\SRC\DataAccess\CustomerAccess.cs:line 1741
   at Bestprintbuy.Admin.Services.CustomerService.UpdateCustServiceNotes(SupplierPOModel poModel, String strDBConn) in d:\PPSOLAdmin\SRC\Services\CustomerService.cs:line 246
   at Bestprintbuy.Admin.Web.Customers.CustServiceNotes.btnSave_Click(Object sender, EventArgs e) in d:\PPSOLAdmin\SRC\Web\Customers\CustServiceNotes.aspx.cs:line 62
------------------------------------------------------------------------
07/31/2013 08:35:49 PM : Procedure or Function 'INS_CUST_PO_DTL_SERVICEREP_COMMENTS' expects parameter '@IMAGE3', which was not supplied.
   at System.Data.SqlClient.SqlConnection.OnError(SqlException exception, Boolean breakConnection, Action`1 wrapCloseInAction)
   at System.Data.SqlClient.SqlInternalConnection.OnError(SqlException exception, Boolean breakConnection, Action`1 wrapCloseInAction)
   at System.Data.SqlClient.TdsParser.ThrowExceptionAndWarning(TdsParserStateObject stateObj, Boolean callerHasConnectionLock, Boolean asyncClose)
   at System.Data.SqlClient.TdsParser.TryRun(RunBehavior runBehavior, SqlCommand cmdHandler, SqlDataReader dataStream, BulkCopySimpleResultSet bulkCopyHandler, TdsParserStateObject stateObj, Boolean& dataReady)
   at System.Data.SqlClient.SqlDataReader.TryConsumeMetaData()
   at System.Data.SqlClient.SqlDataReader.get_MetaData()
   at System.Data.SqlClient.SqlCommand.FinishExecuteReader(SqlDataReader ds, RunBehavior runBehavior, String resetOptionsString)
   at System.Data.SqlClient.SqlCommand.RunExecuteReaderTds(CommandBehavior cmdBehavior, RunBehavior runBehavior, Boolean returnStream, Boolean async, Int32 timeout, Task& task, Boolean asyncWrite)
   at System.Data.SqlClient.SqlCommand.RunExecuteReader(CommandBehavior cmdBehavior, RunBehavior runBehavior, Boolean returnStream, String method, TaskCompletionSource`1 completion, Int32 timeout, Task& task, Boolean asyncWrite)
   at System.Data.SqlClient.SqlCommand.RunExecuteReader(CommandBehavior cmdBehavior, RunBehavior runBehavior, Boolean returnStream, String method)
   at System.Data.SqlClient.SqlCommand.ExecuteReader(CommandBehavior behavior, String method)
   at System.Data.SqlClient.SqlCommand.ExecuteDbDataReader(CommandBehavior behavior)
   at System.Data.Common.DbCommand.System.Data.IDbCommand.ExecuteReader(CommandBehavior behavior)
   at System.Data.Common.DbDataAdapter.FillInternal(DataSet dataset, DataTable[] datatables, Int32 startRecord, Int32 maxRecords, String srcTable, IDbCommand command, CommandBehavior behavior)
   at System.Data.Common.DbDataAdapter.Fill(DataSet dataSet, Int32 startRecord, Int32 maxRecords, String srcTable, IDbCommand command, CommandBehavior behavior)
   at System.Data.Common.DbDataAdapter.Fill(DataSet dataSet, String srcTable)
   at Bestprintbuy.Admin.DataAccess.SqlHelper.ExecuteBpbDataset(SqlConnection connection, CommandType commandType, String commandText, DataSet ds, String tableName, SqlParameter[] commandParameters) in d:\PPSOLAdmin\SRC\DataAccess\SQLHelper.cs:line 778
   at Bestprintbuy.Admin.DataAccess.SqlHelper.ExecuteBpbDataset(String connectionString, CommandType commandType, String commandText, DataSet ds, String tableName, SqlParameter[] commandParameters) in d:\PPSOLAdmin\SRC\DataAccess\SQLHelper.cs:line 689
   at Bestprintbuy.Admin.DataAccess.CustomerAccess.UpdateCustServiceNotes(SupplierPOModel poModel, String strDBConn) in d:\PPSOLAdmin\SRC\DataAccess\CustomerAccess.cs:line 1735
------------------------------------------------------------------------
07/31/2013 08:35:49 PM : Procedure or Function 'INS_CUST_PO_DTL_SERVICEREP_COMMENTS' expects parameter '@IMAGE3', which was not supplied.
   at Bestprintbuy.Admin.DataAccess.CustomerAccess.UpdateCustServiceNotes(SupplierPOModel poModel, String strDBConn) in d:\PPSOLAdmin\SRC\DataAccess\CustomerAccess.cs:line 1741
   at Bestprintbuy.Admin.Services.CustomerService.UpdateCustServiceNotes(SupplierPOModel poModel, String strDBConn) in d:\PPSOLAdmin\SRC\Services\CustomerService.cs:line 246
   at Bestprintbuy.Admin.Web.Customers.CustServiceNotes.btnSave_Click(Object sender, EventArgs e) in d:\PPSOLAdmin\SRC\Web\Customers\CustServiceNotes.aspx.cs:line 62
------------------------------------------------------------------------
07/31/2013 08:36:53 PM : System.Web.Services.Protocols.SoapException: Server was unable to process request. ---> System.ArgumentException: Invalid or expired token.
   at Usadata.ListModuleV3.GatewayService.getOrderStatus(String Token) in E:\Work\USADATA\01-Trunk\SBP_Original\listmodulev3\GatewayService.vb:line 1146
   --- End of inner exception stack trace ---
   at System.Web.Services.Protocols.SoapHttpClientProtocol.ReadResponse(SoapClientMessage message, WebResponse response, Stream responseStream, Boolean asyncCall)
   at System.Web.Services.Protocols.SoapHttpClientProtocol.Invoke(String methodName, Object[] parameters)
   at Bestprintbuy.Admin.Web.Usadata.ListModuleV3.Gateway.GatewayService.getOrderStatus(String Token) in d:\PPSOLAdmin\SRC\Web\Web References\Usadata.ListModuleV3.Gateway\Reference.cs:line 358
   at Bestprintbuy.Admin.Web.Customers.CheckUSLeadsList.CheckPendingUSLeadsForDownload() in d:\PPSOLAdmin\SRC\Web\Customers\CheckUSLeadsList.aspx.cs:line 55
------------------------------------------------------------------------
07/31/2013 08:40:30 PM : System.Web.Services.Protocols.SoapException: Server was unable to process request. ---> System.ArgumentException: Invalid or expired token.
   at Usadata.ListModuleV3.GatewayService.getOrderStatus(String Token) in E:\Work\USADATA\01-Trunk\SBP_Original\listmodulev3\GatewayService.vb:line 1146
   --- End of inner exception stack trace ---
   at System.Web.Services.Protocols.SoapHttpClientProtocol.ReadResponse(SoapClientMessage message, WebResponse response, Stream responseStream, Boolean asyncCall)
   at System.Web.Services.Protocols.SoapHttpClientProtocol.Invoke(String methodName, Object[] parameters)
   at Bestprintbuy.Admin.Web.Usadata.ListModuleV3.Gateway.GatewayService.getOrderStatus(String Token) in d:\PPSOLAdmin\SRC\Web\Web References\Usadata.ListModuleV3.Gateway\Reference.cs:line 358
   at Bestprintbuy.Admin.Web.Customers.CheckUSLeadsList.CheckPendingUSLeadsForDownload() in d:\PPSOLAdmin\SRC\Web\Customers\CheckUSLeadsList.aspx.cs:line 55
------------------------------------------------------------------------
07/31/2013 08:40:51 PM : Thread was being aborted.
   at System.Threading.Thread.AbortInternal()
   at System.Threading.Thread.Abort(Object stateInfo)
   at System.Web.HttpResponse.AbortCurrentThread()
   at System.Web.HttpResponse.End()
   at System.Web.HttpResponse.Redirect(String url, Boolean endResponse, Boolean permanent)
   at System.Web.HttpResponse.Redirect(String url)
   at Bestprintbuy.Admin.Web.Common.PageBase.CheckAuthentication() in d:\PPSOLAdmin\SRC\Web\Common\PageBase.cs:line 208
   at Bestprintbuy.Admin.Web.Common.PageBase.OnInit(EventArgs e) in d:\PPSOLAdmin\SRC\Web\Common\PageBase.cs:line 190
------------------------------------------------------------------------
07/31/2013 08:41:06 PM : System.Web.Services.Protocols.SoapException: Server was unable to process request. ---> System.ArgumentException: Invalid or expired token.
   at Usadata.ListModuleV3.GatewayService.getOrderStatus(String Token) in E:\Work\USADATA\01-Trunk\SBP_Original\listmodulev3\GatewayService.vb:line 1146
   --- End of inner exception stack trace ---
   at System.Web.Services.Protocols.SoapHttpClientProtocol.ReadResponse(SoapClientMessage message, WebResponse response, Stream responseStream, Boolean asyncCall)
   at System.Web.Services.Protocols.SoapHttpClientProtocol.Invoke(String methodName, Object[] parameters)
   at Bestprintbuy.Admin.Web.Usadata.ListModuleV3.Gateway.GatewayService.getOrderStatus(String Token) in d:\PPSOLAdmin\SRC\Web\Web References\Usadata.ListModuleV3.Gateway\Reference.cs:line 358
   at Bestprintbuy.Admin.Web.Customers.CheckUSLeadsList.CheckPendingUSLeadsForDownload() in d:\PPSOLAdmin\SRC\Web\Customers\CheckUSLeadsList.aspx.cs:line 55
------------------------------------------------------------------------
07/31/2013 08:46:04 PM : System.Web.Services.Protocols.SoapException: Server was unable to process request. ---> System.ArgumentException: Invalid or expired token.
   at Usadata.ListModuleV3.GatewayService.getOrderStatus(String Token) in E:\Work\USADATA\01-Trunk\SBP_Original\listmodulev3\GatewayService.vb:line 1146
   --- End of inner exception stack trace ---
   at System.Web.Services.Protocols.SoapHttpClientProtocol.ReadResponse(SoapClientMessage message, WebResponse response, Stream responseStream, Boolean asyncCall)
   at System.Web.Services.Protocols.SoapHttpClientProtocol.Invoke(String methodName, Object[] parameters)
   at Bestprintbuy.Admin.Web.Usadata.ListModuleV3.Gateway.GatewayService.getOrderStatus(String Token) in d:\PPSOLAdmin\SRC\Web\Web References\Usadata.ListModuleV3.Gateway\Reference.cs:line 358
   at Bestprintbuy.Admin.Web.Customers.CheckUSLeadsList.CheckPendingUSLeadsForDownload() in d:\PPSOLAdmin\SRC\Web\Customers\CheckUSLeadsList.aspx.cs:line 55
------------------------------------------------------------------------
07/31/2013 08:47:47 PM : System.Web.Services.Protocols.SoapException: Server was unable to process request. ---> System.ArgumentException: Invalid or expired token.
   at Usadata.ListModuleV3.GatewayService.getOrderStatus(String Token) in E:\Work\USADATA\01-Trunk\SBP_Original\listmodulev3\GatewayService.vb:line 1146
   --- End of inner exception stack trace ---
   at System.Web.Services.Protocols.SoapHttpClientProtocol.ReadResponse(SoapClientMessage message, WebResponse response, Stream responseStream, Boolean asyncCall)
   at System.Web.Services.Protocols.SoapHttpClientProtocol.Invoke(String methodName, Object[] parameters)
   at Bestprintbuy.Admin.Web.Usadata.ListModuleV3.Gateway.GatewayService.getOrderStatus(String Token) in d:\PPSOLAdmin\SRC\Web\Web References\Usadata.ListModuleV3.Gateway\Reference.cs:line 358
   at Bestprintbuy.Admin.Web.Customers.CheckUSLeadsList.CheckPendingUSLeadsForDownload() in d:\PPSOLAdmin\SRC\Web\Customers\CheckUSLeadsList.aspx.cs:line 55
------------------------------------------------------------------------
